<?xml version="1.0" encoding="utf-8" standalone="no"?>
<!DOCTYPE svg PUBLIC "-//W3C//DTD SVG 1.1//EN"
  "http://www.w3.org/Graphics/SVG/1.1/DTD/svg11.dtd">
<!-- Created with matplotlib (http://matplotlib.org/) -->
<svg height="708pt" version="1.1" viewBox="0 0 705 708" width="705pt" xmlns="http://www.w3.org/2000/svg" xmlns:xlink="http://www.w3.org/1999/xlink">
 <defs>
  <style type="text/css">
*{stroke-linecap:butt;stroke-linejoin:round;}
  </style>
 </defs>
 <g id="figure_1">
  <g id="patch_1">
   <path d="
M0 708.08
L705.229 708.08
L705.229 0
L0 0
z
" style="fill:#ffffff;"/>
  </g>
  <g id="axes_1">
   <g id="patch_2">
    <path d="
M17.8516 691.48
L705.229 691.48
L705.229 5
L17.8516 5
z
" style="fill:#ffffff;"/>
   </g>
   <g id="PatchCollection_1">
    <defs>
     <path d="
M655.3 -65.9516
L655.3 -569.76
L67.7801 -569.76
L67.7801 -65.9516
z
" id="m4517306580" style="stroke:#000000;"/>
    </defs>
    <g clip-path="url(#p2bef1568ea)">
     <use style="fill:#ffffff;stroke:#000000;" x="0.0" xlink:href="#m4517306580" y="708.08"/>
    </g>
   </g>
   <g id="PatchCollection_2">
    <defs>
     <path d="
M411.899 -468.999
L428.685 -569.76
L395.113 -569.76
L395.113 -561.363
L386.72 -561.363
L386.72 -569.76
L353.147 -569.76
L353.147 -552.967
L386.72 -468.999
z
" id="m5e9c91bca6" style="stroke:#000000;stroke-width:2;"/>
    </defs>
    <g clip-path="url(#p2bef1568ea)">
     <use style="fill:#ffddaa;stroke:#000000;stroke-width:2;" x="0.0" xlink:href="#m5e9c91bca6" y="708.08"/>
    </g>
   </g>
   <g id="PatchCollection_3">
    <defs>
     <path d="
M564.731 -222.361
L489.192 -222.361
L505.979 -180.377
L547.944 -180.377
z
" id="mf61acd434f" style="stroke:#000000;stroke-width:2;"/>
    </defs>
    <g clip-path="url(#p2bef1568ea)">
     <use style="fill:#aaffcc;stroke:#000000;stroke-width:2;" x="0.0" xlink:href="#mf61acd434f" y="708.08"/>
    </g>
   </g>
   <g id="PatchCollection_4">
    <defs>
     <path d="
M332.164 -544.136
L306.985 -544.136
L298.592 -493.755
L306.985 -493.755
L306.985 -502.151
L315.378 -510.548
L323.771 -510.548
L332.164 -502.151
L332.164 -493.755
L340.557 -493.755
z
" id="m070196b2eb" style="stroke:#000000;stroke-width:2;"/>
    </defs>
    <g clip-path="url(#p2bef1568ea)">
     <use style="fill:#3300ff;stroke:#000000;stroke-width:2;" x="0.0" xlink:href="#m070196b2eb" y="708.08"/>
    </g>
   </g>
   <g id="PatchCollection_5">
    <defs>
     <path d="
M348.227 -418.618
L306.261 -443.808
L155.185 -443.808
L239.116 -401.824
L339.834 -401.824
z
" id="m2b50a6a576" style="stroke:#000000;stroke-width:2;"/>
    </defs>
    <g clip-path="url(#p2bef1568ea)">
     <use style="fill:#5599ff;stroke:#000000;stroke-width:2;" x="0.0" xlink:href="#m2b50a6a576" y="708.08"/>
    </g>
   </g>
   <g id="PatchCollection_6">
    <defs>
     <path d="
M579.762 -267.475
L562.976 -217.094
L562.976 -116.332
L579.762 -65.9516
L638.514 -65.9516
L655.3 -116.332
L655.3 -217.094
L638.514 -267.475
z
" id="m20c332d870" style="stroke:#000000;stroke-width:2;"/>
    </defs>
    <g clip-path="url(#p2bef1568ea)">
     <use style="fill:#eeffaa;stroke:#000000;stroke-width:2;" x="0.0" xlink:href="#m20c332d870" y="708.08"/>
    </g>
   </g>
   <g id="PatchCollection_7">
    <defs>
     <path d="
M263.138 -401.824
L246.351 -301.062
L279.924 -301.062
L279.924 -309.459
L288.317 -309.459
L288.317 -301.062
L321.89 -301.062
L321.89 -317.856
L288.317 -401.824
z
" id="m1f6dea9891" style="stroke:#000000;stroke-width:2;"/>
    </defs>
    <g clip-path="url(#p2bef1568ea)">
     <use style="fill:#ffbb55;stroke:#000000;stroke-width:2;" x="0.0" xlink:href="#m1f6dea9891" y="708.08"/>
    </g>
   </g>
   <g id="PatchCollection_8">
    <defs>
     <path d="
M420.292 -519.379
L420.292 -393.427
L537.796 -393.427
L537.796 -519.379
z
" id="m00b2a47516" style="stroke:#000000;stroke-width:2;"/>
    </defs>
    <g clip-path="url(#p2bef1568ea)">
     <use style="fill:#bbffaa;stroke:#000000;stroke-width:2;" x="0.0" xlink:href="#m00b2a47516" y="708.08"/>
    </g>
   </g>
   <g id="PatchCollection_9">
    <defs>
     <path d="
M573.887 -249.842
L565.494 -258.239
L515.135 -275.032
L473.169 -317.016
L447.99 -291.826
L489.955 -249.842
L481.562 -241.445
L565.494 -241.445
z
" id="m5441a281a6" style="stroke:#000000;stroke-width:2;"/>
    </defs>
    <g clip-path="url(#p2bef1568ea)">
     <use style="fill:#ff0000;stroke:#000000;stroke-width:2;" x="0.0" xlink:href="#m5441a281a6" y="708.08"/>
    </g>
   </g>
   <g id="PatchCollection_10">
    <defs>
     <path d="
M252.429 -124.729
L244.036 -368.237
L227.25 -393.427
L202.07 -385.03
L160.105 -301.062
L210.464 -133.126
L235.643 -116.332
z
" id="m506f01420e" style="stroke:#000000;stroke-width:2;"/>
    </defs>
    <g clip-path="url(#p2bef1568ea)">
     <use style="fill:#aaffff;stroke:#000000;stroke-width:2;" x="0.0" xlink:href="#m506f01420e" y="708.08"/>
    </g>
   </g>
   <g id="PatchCollection_11">
    <defs>
     <path d="
M537.796 -393.427
L655.3 -393.427
L579.762 -443.808
z
" id="me234623a7e" style="stroke:#000000;stroke-width:2;"/>
    </defs>
    <g clip-path="url(#p2bef1568ea)">
     <use style="fill:#ffaadd;stroke:#000000;stroke-width:2;" x="0.0" xlink:href="#me234623a7e" y="708.08"/>
    </g>
   </g>
   <g id="PatchCollection_12">
    <defs>
     <path d="
M445.62 -268.364
L428.833 -167.602
L462.406 -167.602
L462.406 -175.999
L470.799 -175.999
L470.799 -167.602
L504.372 -167.602
L504.372 -184.396
L470.799 -268.364
z
" id="md45642ae57" style="stroke:#000000;stroke-width:2;"/>
    </defs>
    <g clip-path="url(#p2bef1568ea)">
     <use style="fill:#ff9900;stroke:#000000;stroke-width:2;" x="0.0" xlink:href="#md45642ae57" y="708.08"/>
    </g>
   </g>
   <g id="PatchCollection_13">
    <defs>
     <path d="
M562.976 -141.523
L521.01 -166.713
L369.933 -166.713
L453.865 -124.729
L554.582 -124.729
z
" id="mbf0eaf2254" style="stroke:#000000;stroke-width:2;"/>
    </defs>
    <g clip-path="url(#p2bef1568ea)">
     <use style="fill:#aaccff;stroke:#000000;stroke-width:2;" x="0.0" xlink:href="#mbf0eaf2254" y="708.08"/>
    </g>
   </g>
   <g id="PatchCollection_14">
    <defs>
     <path d="
M420.292 -439.175
L411.899 -447.572
L361.54 -464.366
L319.574 -506.35
L294.395 -481.159
L336.361 -439.175
L327.968 -430.779
L411.899 -430.779
z
" id="mba76c593bc" style="stroke:#000000;stroke-width:2;"/>
    </defs>
    <g clip-path="url(#p2bef1568ea)">
     <use style="fill:#ff5555;stroke:#000000;stroke-width:2;" x="0.0" xlink:href="#mba76c593bc" y="708.08"/>
    </g>
   </g>
   <g id="PatchCollection_15">
    <defs>
     <path d="
M160.105 -301.062
L151.712 -544.57
L134.925 -569.76
L109.746 -561.363
L67.7801 -477.395
L118.139 -309.459
L143.318 -292.666
z
" id="m44935209a9" style="stroke:#000000;stroke-width:2;"/>
    </defs>
    <g clip-path="url(#p2bef1568ea)">
     <use style="fill:#55ffff;stroke:#000000;stroke-width:2;" x="0.0" xlink:href="#m44935209a9" y="708.08"/>
    </g>
   </g>
   <g id="PatchCollection_16">
    <defs>
     <path d="
M453.865 -569.76
L428.685 -569.76
L420.292 -519.379
L428.685 -519.379
L428.685 -527.776
L437.078 -536.173
L445.472 -536.173
L453.865 -527.776
L453.865 -519.379
L462.258 -519.379
z
" id="me9705e51d0" style="stroke:#000000;stroke-width:2;"/>
    </defs>
    <g clip-path="url(#p2bef1568ea)">
     <use style="fill:#bbaaff;stroke:#000000;stroke-width:2;" x="0.0" xlink:href="#me9705e51d0" y="708.08"/>
    </g>
   </g>
   <g id="PatchCollection_17">
    <defs>
     <path d="
M426.962 -348.219
L502.5 -348.219
L485.714 -390.203
L443.748 -390.203
z
" id="m8110fe62af" style="stroke:#000000;stroke-width:2;"/>
    </defs>
    <g clip-path="url(#p2bef1568ea)">
     <use style="fill:#00ff66;stroke:#000000;stroke-width:2;" x="0.0" xlink:href="#m8110fe62af" y="708.08"/>
    </g>
   </g>
   <g id="PatchCollection_18">
    <defs>
     <path d="
M537.796 -393.427
L537.796 -267.475
L655.3 -267.475
L655.3 -393.427
z
" id="m5aebce3f2f" style="stroke:#000000;stroke-width:2;"/>
    </defs>
    <g clip-path="url(#p2bef1568ea)">
     <use style="fill:#77ff55;stroke:#000000;stroke-width:2;" x="0.0" xlink:href="#m5aebce3f2f" y="708.08"/>
    </g>
   </g>
   <g id="PatchCollection_19">
    <defs>
     <path d="
M269.216 -267.475
L252.429 -217.094
L252.429 -116.332
L269.216 -65.9516
L327.968 -65.9516
L344.754 -116.332
L344.754 -217.094
L327.968 -267.475
z
" id="mb5085e311d" style="stroke:#000000;stroke-width:2;"/>
    </defs>
    <g clip-path="url(#p2bef1568ea)">
     <use style="fill:#ccff00;stroke:#000000;stroke-width:2;" x="0.0" xlink:href="#mb5085e311d" y="708.08"/>
    </g>
   </g>
   <g id="PatchCollection_20">
    <defs>
     <path d="
M322.324 -380.398
L439.828 -380.398
L364.29 -430.779
z
" id="mc9c0ecb91b" style="stroke:#000000;stroke-width:2;"/>
    </defs>
    <g clip-path="url(#p2bef1568ea)">
     <use style="fill:#ff55bb;stroke:#000000;stroke-width:2;" x="0.0" xlink:href="#mc9c0ecb91b" y="708.08"/>
    </g>
   </g>
   <g id="PatchCollection_21">
    <defs>
     <path d="
M157.153 -409.236
L165.546 -392.443
L224.298 -392.443
L207.511 -417.633
z
" id="ma9e574ab97" style="stroke:#000000;stroke-width:2;"/>
    </defs>
    <g clip-path="url(#p2bef1568ea)">
     <use style="fill:#cc00ff;stroke:#000000;stroke-width:2;" x="0.0" xlink:href="#ma9e574ab97" y="708.08"/>
    </g>
   </g>
   <g id="PatchCollection_22">
    <defs>
     <path d="
M470.651 -74.3484
L462.258 -82.7452
L411.899 -99.5388
L369.933 -141.523
L344.754 -116.332
L386.72 -74.3484
L378.326 -65.9516
L462.258 -65.9516
z
" id="m962a090f88" style="stroke:#000000;stroke-width:2;"/>
    </defs>
    <g clip-path="url(#p2bef1568ea)">
     <use style="fill:#ffaaaa;stroke:#000000;stroke-width:2;" x="0.0" xlink:href="#m962a090f88" y="708.08"/>
    </g>
   </g>
   <g id="PatchCollection_23">
    <defs>
     <path d="
M67.7801 -334.65
L76.1733 -91.142
L92.9596 -65.9516
L118.139 -74.3484
L160.105 -158.317
L109.746 -326.253
L84.5664 -343.046
z
" id="m2eaf8021d1" style="stroke:#000000;stroke-width:2;"/>
    </defs>
    <g clip-path="url(#p2bef1568ea)">
     <use style="fill:#00ffff;stroke:#000000;stroke-width:2;" x="0.0" xlink:href="#m2eaf8021d1" y="708.08"/>
    </g>
   </g>
   <g id="PatchCollection_24">
    <defs>
     <path d="
M529.403 -116.332
L453.865 -116.332
L470.651 -74.3484
L512.617 -74.3484
z
" id="mccec061e59" style="stroke:#000000;stroke-width:2;"/>
    </defs>
    <g clip-path="url(#p2bef1568ea)">
     <use style="fill:#55ff99;stroke:#000000;stroke-width:2;" x="0.0" xlink:href="#mccec061e59" y="708.08"/>
    </g>
   </g>
   <g id="PatchCollection_25">
    <defs>
     <path d="
M272.689 -443.808
L272.689 -569.76
L155.185 -569.76
L155.185 -443.808
z
" id="mee1755bc1b" style="stroke:#000000;stroke-width:2;"/>
    </defs>
    <g clip-path="url(#p2bef1568ea)">
     <use style="fill:#33ff00;stroke:#000000;stroke-width:2;" x="0.0" xlink:href="#mee1755bc1b" y="708.08"/>
    </g>
   </g>
   <g id="PatchCollection_26">
    <defs>
     <path d="
M361.54 -368.237
L344.754 -317.856
L344.754 -217.094
L361.54 -166.713
L420.292 -166.713
L437.078 -217.094
L437.078 -317.856
L420.292 -368.237
z
" id="m46e60e41de" style="stroke:#000000;stroke-width:2;"/>
    </defs>
    <g clip-path="url(#p2bef1568ea)">
     <use style="fill:#ddff55;stroke:#000000;stroke-width:2;" x="0.0" xlink:href="#m46e60e41de" y="708.08"/>
    </g>
   </g>
   <g id="PatchCollection_27">
    <defs>
     <path d="
M525.912 -348.219
L500.732 -348.219
L492.339 -297.838
L500.732 -297.838
L500.732 -306.235
L509.125 -314.631
L517.518 -314.631
L525.912 -306.235
L525.912 -297.838
L534.305 -297.838
z
" id="m44da116fec" style="stroke:#000000;stroke-width:2;"/>
    </defs>
    <g clip-path="url(#p2bef1568ea)">
     <use style="fill:#7755ff;stroke:#000000;stroke-width:2;" x="0.0" xlink:href="#m44da116fec" y="708.08"/>
    </g>
   </g>
   <g id="PatchCollection_28">
    <defs>
     <path d="
M133.876 -105.836
L251.38 -105.836
L175.842 -156.217
z
" id="m8b769fa7e7" style="stroke:#000000;stroke-width:2;"/>
    </defs>
    <g clip-path="url(#p2bef1568ea)">
     <use style="fill:#ff0099;stroke:#000000;stroke-width:2;" x="0.0" xlink:href="#m8b769fa7e7" y="708.08"/>
    </g>
   </g>
   <g id="PatchCollection_29">
    <defs>
     <path d="
M462.258 -544.57
L504.224 -519.379
L655.3 -519.379
L571.369 -561.363
L470.651 -561.363
z
" id="m43f0af6adc" style="stroke:#000000;stroke-width:2;"/>
    </defs>
    <g clip-path="url(#p2bef1568ea)">
     <use style="fill:#0066ff;stroke:#000000;stroke-width:2;" x="0.0" xlink:href="#m43f0af6adc" y="708.08"/>
    </g>
   </g>
   <g id="PatchCollection_30">
    <defs>
     <path d="
M122.336 -82.7452
L130.729 -65.9516
L189.481 -65.9516
L172.694 -91.142
z
" id="m3bfc9c1eaa" style="stroke:#000000;stroke-width:2;"/>
    </defs>
    <g clip-path="url(#p2bef1568ea)">
     <use style="fill:#dd55ff;stroke:#000000;stroke-width:2;" x="0.0" xlink:href="#m3bfc9c1eaa" y="708.08"/>
    </g>
   </g>
   <g id="PatchCollection_31">
    <defs>
     <path d="
M289.359 -561.363
L297.752 -544.57
L356.504 -544.57
L339.718 -569.76
z
" id="me8e8207fc5" style="stroke:#000000;stroke-width:2;"/>
    </defs>
    <g clip-path="url(#p2bef1568ea)">
     <use style="fill:#eeaaff;stroke:#000000;stroke-width:2;" x="0.0" xlink:href="#me8e8207fc5" y="708.08"/>
    </g>
   </g>
   <g id="patch_3">
    <path d="
M17.8516 5
L705.229 5" style="fill:none;stroke:#000000;stroke-linecap:square;stroke-linejoin:miter;"/>
   </g>
   <g id="patch_4">
    <path d="
M705.229 691.48
L705.229 5" style="fill:none;stroke:#000000;stroke-linecap:square;stroke-linejoin:miter;"/>
   </g>
   <g id="patch_5">
    <path d="
M17.8516 691.48
L705.229 691.48" style="fill:none;stroke:#000000;stroke-linecap:square;stroke-linejoin:miter;"/>
   </g>
   <g id="patch_6">
    <path d="
M17.8516 691.48
L17.8516 5" style="fill:none;stroke:#000000;stroke-linecap:square;stroke-linejoin:miter;"/>
   </g>
   <g id="matplotlib.axis_1">
    <g id="xtick_1">
     <g id="line2d_1">
      <defs>
       <path d="
M0 0
L0 -4" id="m93b0483c22" style="stroke:#000000;stroke-width:0.5;"/>
      </defs>
      <g>
       <use style="stroke:#000000;stroke-width:0.5;" x="67.7801250133" xlink:href="#m93b0483c22" y="691.48"/>
      </g>
     </g>
     <g id="line2d_2">
      <defs>
       <path d="
M0 0
L0 4" id="m741efc42ff" style="stroke:#000000;stroke-width:0.5;"/>
      </defs>
      <g>
       <use style="stroke:#000000;stroke-width:0.5;" x="67.7801250133" xlink:href="#m741efc42ff" y="5.0"/>
      </g>
     </g>
     <g id="text_1">
      <!-- 0 -->
      <defs>
       <path d="
M31.7812 66.4062
Q24.1719 66.4062 20.3281 58.9062
Q16.5 51.4219 16.5 36.375
Q16.5 21.3906 20.3281 13.8906
Q24.1719 6.39062 31.7812 6.39062
Q39.4531 6.39062 43.2812 13.8906
Q47.125 21.3906 47.125 36.375
Q47.125 51.4219 43.2812 58.9062
Q39.4531 66.4062 31.7812 66.4062
M31.7812 74.2188
Q44.0469 74.2188 50.5156 64.5156
Q56.9844 54.8281 56.9844 36.375
Q56.9844 17.9688 50.5156 8.26562
Q44.0469 -1.42188 31.7812 -1.42188
Q19.5312 -1.42188 13.0625 8.26562
Q6.59375 17.9688 6.59375 36.375
Q6.59375 54.8281 13.0625 64.5156
Q19.5312 74.2188 31.7812 74.2188" id="BitstreamVeraSans-Roman-30"/>
      </defs>
      <g transform="translate(64.7566875133 704.598125)scale(0.12 -0.12)">
       <use xlink:href="#BitstreamVeraSans-Roman-30"/>
      </g>
     </g>
    </g>
    <g id="xtick_2">
     <g id="line2d_3">
      <g>
       <use style="stroke:#000000;stroke-width:0.5;" x="151.71156251" xlink:href="#m93b0483c22" y="691.48"/>
      </g>
     </g>
     <g id="line2d_4">
      <g>
       <use style="stroke:#000000;stroke-width:0.5;" x="151.71156251" xlink:href="#m741efc42ff" y="5.0"/>
      </g>
     </g>
     <g id="text_2">
      <!-- 10 -->
      <defs>
       <path d="
M12.4062 8.29688
L28.5156 8.29688
L28.5156 63.9219
L10.9844 60.4062
L10.9844 69.3906
L28.4219 72.9062
L38.2812 72.9062
L38.2812 8.29688
L54.3906 8.29688
L54.3906 0
L12.4062 0
z
" id="BitstreamVeraSans-Roman-31"/>
      </defs>
      <g transform="translate(145.13406251 704.598125)scale(0.12 -0.12)">
       <use xlink:href="#BitstreamVeraSans-Roman-31"/>
       <use x="63.623046875" xlink:href="#BitstreamVeraSans-Roman-30"/>
      </g>
     </g>
    </g>
    <g id="xtick_3">
     <g id="line2d_5">
      <g>
       <use style="stroke:#000000;stroke-width:0.5;" x="235.643000006" xlink:href="#m93b0483c22" y="691.48"/>
      </g>
     </g>
     <g id="line2d_6">
      <g>
       <use style="stroke:#000000;stroke-width:0.5;" x="235.643000006" xlink:href="#m741efc42ff" y="5.0"/>
      </g>
     </g>
     <g id="text_3">
      <!-- 20 -->
      <defs>
       <path d="
M19.1875 8.29688
L53.6094 8.29688
L53.6094 0
L7.32812 0
L7.32812 8.29688
Q12.9375 14.1094 22.625 23.8906
Q32.3281 33.6875 34.8125 36.5312
Q39.5469 41.8438 41.4219 45.5312
Q43.3125 49.2188 43.3125 52.7812
Q43.3125 58.5938 39.2344 62.25
Q35.1562 65.9219 28.6094 65.9219
Q23.9688 65.9219 18.8125 64.3125
Q13.6719 62.7031 7.8125 59.4219
L7.8125 69.3906
Q13.7656 71.7812 18.9375 73
Q24.125 74.2188 28.4219 74.2188
Q39.75 74.2188 46.4844 68.5469
Q53.2188 62.8906 53.2188 53.4219
Q53.2188 48.9219 51.5312 44.8906
Q49.8594 40.875 45.4062 35.4062
Q44.1875 33.9844 37.6406 27.2188
Q31.1094 20.4531 19.1875 8.29688" id="BitstreamVeraSans-Roman-32"/>
      </defs>
      <g transform="translate(228.846125006 704.598125)scale(0.12 -0.12)">
       <use xlink:href="#BitstreamVeraSans-Roman-32"/>
       <use x="63.623046875" xlink:href="#BitstreamVeraSans-Roman-30"/>
      </g>
     </g>
    </g>
    <g id="xtick_4">
     <g id="line2d_7">
      <g>
       <use style="stroke:#000000;stroke-width:0.5;" x="319.574437502" xlink:href="#m93b0483c22" y="691.48"/>
      </g>
     </g>
     <g id="line2d_8">
      <g>
       <use style="stroke:#000000;stroke-width:0.5;" x="319.574437502" xlink:href="#m741efc42ff" y="5.0"/>
      </g>
     </g>
     <g id="text_4">
      <!-- 30 -->
      <defs>
       <path d="
M40.5781 39.3125
Q47.6562 37.7969 51.625 33
Q55.6094 28.2188 55.6094 21.1875
Q55.6094 10.4062 48.1875 4.48438
Q40.7656 -1.42188 27.0938 -1.42188
Q22.5156 -1.42188 17.6562 -0.515625
Q12.7969 0.390625 7.625 2.20312
L7.625 11.7188
Q11.7188 9.32812 16.5938 8.10938
Q21.4844 6.89062 26.8125 6.89062
Q36.0781 6.89062 40.9375 10.5469
Q45.7969 14.2031 45.7969 21.1875
Q45.7969 27.6406 41.2812 31.2656
Q36.7656 34.9062 28.7188 34.9062
L20.2188 34.9062
L20.2188 43.0156
L29.1094 43.0156
Q36.375 43.0156 40.2344 45.9219
Q44.0938 48.8281 44.0938 54.2969
Q44.0938 59.9062 40.1094 62.9062
Q36.1406 65.9219 28.7188 65.9219
Q24.6562 65.9219 20.0156 65.0312
Q15.375 64.1562 9.8125 62.3125
L9.8125 71.0938
Q15.4375 72.6562 20.3438 73.4375
Q25.25 74.2188 29.5938 74.2188
Q40.8281 74.2188 47.3594 69.1094
Q53.9062 64.0156 53.9062 55.3281
Q53.9062 49.2656 50.4375 45.0938
Q46.9688 40.9219 40.5781 39.3125" id="BitstreamVeraSans-Roman-33"/>
      </defs>
      <g transform="translate(312.795375002 704.598125)scale(0.12 -0.12)">
       <use xlink:href="#BitstreamVeraSans-Roman-33"/>
       <use x="63.623046875" xlink:href="#BitstreamVeraSans-Roman-30"/>
      </g>
     </g>
    </g>
    <g id="xtick_5">
     <g id="line2d_9">
      <g>
       <use style="stroke:#000000;stroke-width:0.5;" x="403.505874998" xlink:href="#m93b0483c22" y="691.48"/>
      </g>
     </g>
     <g id="line2d_10">
      <g>
       <use style="stroke:#000000;stroke-width:0.5;" x="403.505874998" xlink:href="#m741efc42ff" y="5.0"/>
      </g>
     </g>
     <g id="text_5">
      <!-- 40 -->
      <defs>
       <path d="
M37.7969 64.3125
L12.8906 25.3906
L37.7969 25.3906
z

M35.2031 72.9062
L47.6094 72.9062
L47.6094 25.3906
L58.0156 25.3906
L58.0156 17.1875
L47.6094 17.1875
L47.6094 0
L37.7969 0
L37.7969 17.1875
L4.89062 17.1875
L4.89062 26.7031
z
" id="BitstreamVeraSans-Roman-34"/>
      </defs>
      <g transform="translate(396.562749998 704.598125)scale(0.12 -0.12)">
       <use xlink:href="#BitstreamVeraSans-Roman-34"/>
       <use x="63.623046875" xlink:href="#BitstreamVeraSans-Roman-30"/>
      </g>
     </g>
    </g>
    <g id="xtick_6">
     <g id="line2d_11">
      <g>
       <use style="stroke:#000000;stroke-width:0.5;" x="487.437312494" xlink:href="#m93b0483c22" y="691.48"/>
      </g>
     </g>
     <g id="line2d_12">
      <g>
       <use style="stroke:#000000;stroke-width:0.5;" x="487.437312494" xlink:href="#m741efc42ff" y="5.0"/>
      </g>
     </g>
     <g id="text_6">
      <!-- 50 -->
      <defs>
       <path d="
M10.7969 72.9062
L49.5156 72.9062
L49.5156 64.5938
L19.8281 64.5938
L19.8281 46.7344
Q21.9688 47.4688 24.1094 47.8281
Q26.2656 48.1875 28.4219 48.1875
Q40.625 48.1875 47.75 41.5
Q54.8906 34.8125 54.8906 23.3906
Q54.8906 11.625 47.5625 5.09375
Q40.2344 -1.42188 26.9062 -1.42188
Q22.3125 -1.42188 17.5469 -0.640625
Q12.7969 0.140625 7.71875 1.70312
L7.71875 11.625
Q12.1094 9.23438 16.7969 8.0625
Q21.4844 6.89062 26.7031 6.89062
Q35.1562 6.89062 40.0781 11.3281
Q45.0156 15.7656 45.0156 23.3906
Q45.0156 31 40.0781 35.4375
Q35.1562 39.8906 26.7031 39.8906
Q22.75 39.8906 18.8125 39.0156
Q14.8906 38.1406 10.7969 36.2812
z
" id="BitstreamVeraSans-Roman-35"/>
      </defs>
      <g transform="translate(480.663874994 704.598125)scale(0.12 -0.12)">
       <use xlink:href="#BitstreamVeraSans-Roman-35"/>
       <use x="63.623046875" xlink:href="#BitstreamVeraSans-Roman-30"/>
      </g>
     </g>
    </g>
    <g id="xtick_7">
     <g id="line2d_13">
      <g>
       <use style="stroke:#000000;stroke-width:0.5;" x="571.36874999" xlink:href="#m93b0483c22" y="691.48"/>
      </g>
     </g>
     <g id="line2d_14">
      <g>
       <use style="stroke:#000000;stroke-width:0.5;" x="571.36874999" xlink:href="#m741efc42ff" y="5.0"/>
      </g>
     </g>
     <g id="text_7">
      <!-- 60 -->
      <defs>
       <path d="
M33.0156 40.375
Q26.375 40.375 22.4844 35.8281
Q18.6094 31.2969 18.6094 23.3906
Q18.6094 15.5312 22.4844 10.9531
Q26.375 6.39062 33.0156 6.39062
Q39.6562 6.39062 43.5312 10.9531
Q47.4062 15.5312 47.4062 23.3906
Q47.4062 31.2969 43.5312 35.8281
Q39.6562 40.375 33.0156 40.375
M52.5938 71.2969
L52.5938 62.3125
Q48.875 64.0625 45.0938 64.9844
Q41.3125 65.9219 37.5938 65.9219
Q27.8281 65.9219 22.6719 59.3281
Q17.5312 52.7344 16.7969 39.4062
Q19.6719 43.6562 24.0156 45.9219
Q28.375 48.1875 33.5938 48.1875
Q44.5781 48.1875 50.9531 41.5156
Q57.3281 34.8594 57.3281 23.3906
Q57.3281 12.1562 50.6875 5.35938
Q44.0469 -1.42188 33.0156 -1.42188
Q20.3594 -1.42188 13.6719 8.26562
Q6.98438 17.9688 6.98438 36.375
Q6.98438 53.6562 15.1875 63.9375
Q23.3906 74.2188 37.2031 74.2188
Q40.9219 74.2188 44.7031 73.4844
Q48.4844 72.75 52.5938 71.2969" id="BitstreamVeraSans-Roman-36"/>
      </defs>
      <g transform="translate(564.55124999 704.598125)scale(0.12 -0.12)">
       <use xlink:href="#BitstreamVeraSans-Roman-36"/>
       <use x="63.623046875" xlink:href="#BitstreamVeraSans-Roman-30"/>
      </g>
     </g>
    </g>
    <g id="xtick_8">
     <g id="line2d_15">
      <g>
       <use style="stroke:#000000;stroke-width:0.5;" x="655.300187487" xlink:href="#m93b0483c22" y="691.48"/>
      </g>
     </g>
     <g id="line2d_16">
      <g>
       <use style="stroke:#000000;stroke-width:0.5;" x="655.300187487" xlink:href="#m741efc42ff" y="5.0"/>
      </g>
     </g>
     <g id="text_8">
      <!-- 70 -->
      <defs>
       <path d="
M8.20312 72.9062
L55.0781 72.9062
L55.0781 68.7031
L28.6094 0
L18.3125 0
L43.2188 64.5938
L8.20312 64.5938
z
" id="BitstreamVeraSans-Roman-37"/>
      </defs>
      <g transform="translate(648.555812487 704.598125)scale(0.12 -0.12)">
       <use xlink:href="#BitstreamVeraSans-Roman-37"/>
       <use x="63.623046875" xlink:href="#BitstreamVeraSans-Roman-30"/>
      </g>
     </g>
    </g>
   </g>
   <g id="matplotlib.axis_2">
    <g id="ytick_1">
     <g id="line2d_17">
      <defs>
       <path d="
M0 0
L4 0" id="m728421d6d4" style="stroke:#000000;stroke-width:0.5;"/>
      </defs>
      <g>
       <use style="stroke:#000000;stroke-width:0.5;" x="17.8515625" xlink:href="#m728421d6d4" y="642.128415404"/>
      </g>
     </g>
     <g id="line2d_18">
      <defs>
       <path d="
M0 0
L-4 0" id="mcb0005524f" style="stroke:#000000;stroke-width:0.5;"/>
      </defs>
      <g>
       <use style="stroke:#000000;stroke-width:0.5;" x="705.22875" xlink:href="#mcb0005524f" y="642.128415404"/>
      </g>
     </g>
     <g id="text_9">
      <!-- 0 -->
      <g transform="translate(7.8046875 645.439665404)scale(0.12 -0.12)">
       <use xlink:href="#BitstreamVeraSans-Roman-30"/>
      </g>
     </g>
    </g>
    <g id="ytick_2">
     <g id="line2d_19">
      <g>
       <use style="stroke:#000000;stroke-width:0.5;" x="17.8515625" xlink:href="#m728421d6d4" y="558.160296717"/>
      </g>
     </g>
     <g id="line2d_20">
      <g>
       <use style="stroke:#000000;stroke-width:0.5;" x="705.22875" xlink:href="#mcb0005524f" y="558.160296717"/>
      </g>
     </g>
     <g id="text_10">
      <!-- 10 -->
      <g transform="translate(0.6965625 561.471546717)scale(0.12 -0.12)">
       <use xlink:href="#BitstreamVeraSans-Roman-31"/>
       <use x="63.623046875" xlink:href="#BitstreamVeraSans-Roman-30"/>
      </g>
     </g>
    </g>
    <g id="ytick_3">
     <g id="line2d_21">
      <g>
       <use style="stroke:#000000;stroke-width:0.5;" x="17.8515625" xlink:href="#m728421d6d4" y="474.19217803"/>
      </g>
     </g>
     <g id="line2d_22">
      <g>
       <use style="stroke:#000000;stroke-width:0.5;" x="705.22875" xlink:href="#mcb0005524f" y="474.19217803"/>
      </g>
     </g>
     <g id="text_11">
      <!-- 20 -->
      <g transform="translate(0.2578125 477.50342803)scale(0.12 -0.12)">
       <use xlink:href="#BitstreamVeraSans-Roman-32"/>
       <use x="63.623046875" xlink:href="#BitstreamVeraSans-Roman-30"/>
      </g>
     </g>
    </g>
    <g id="ytick_4">
     <g id="line2d_23">
      <g>
       <use style="stroke:#000000;stroke-width:0.5;" x="17.8515625" xlink:href="#m728421d6d4" y="390.224059343"/>
      </g>
     </g>
     <g id="line2d_24">
      <g>
       <use style="stroke:#000000;stroke-width:0.5;" x="705.22875" xlink:href="#mcb0005524f" y="390.224059343"/>
      </g>
     </g>
     <g id="text_12">
      <!-- 30 -->
      <g transform="translate(0.2934375 393.535309343)scale(0.12 -0.12)">
       <use xlink:href="#BitstreamVeraSans-Roman-33"/>
       <use x="63.623046875" xlink:href="#BitstreamVeraSans-Roman-30"/>
      </g>
     </g>
    </g>
    <g id="ytick_5">
     <g id="line2d_25">
      <g>
       <use style="stroke:#000000;stroke-width:0.5;" x="17.8515625" xlink:href="#m728421d6d4" y="306.255940657"/>
      </g>
     </g>
     <g id="line2d_26">
      <g>
       <use style="stroke:#000000;stroke-width:0.5;" x="705.22875" xlink:href="#mcb0005524f" y="306.255940657"/>
      </g>
     </g>
     <g id="text_13">
      <!-- 40 -->
      <g transform="translate(-0.0346875 309.567190657)scale(0.12 -0.12)">
       <use xlink:href="#BitstreamVeraSans-Roman-34"/>
       <use x="63.623046875" xlink:href="#BitstreamVeraSans-Roman-30"/>
      </g>
     </g>
    </g>
    <g id="ytick_6">
     <g id="line2d_27">
      <g>
       <use style="stroke:#000000;stroke-width:0.5;" x="17.8515625" xlink:href="#m728421d6d4" y="222.28782197"/>
      </g>
     </g>
     <g id="line2d_28">
      <g>
       <use style="stroke:#000000;stroke-width:0.5;" x="705.22875" xlink:href="#mcb0005524f" y="222.28782197"/>
      </g>
     </g>
     <g id="text_14">
      <!-- 50 -->
      <g transform="translate(0.3046875 225.59907197)scale(0.12 -0.12)">
       <use xlink:href="#BitstreamVeraSans-Roman-35"/>
       <use x="63.623046875" xlink:href="#BitstreamVeraSans-Roman-30"/>
      </g>
     </g>
    </g>
    <g id="ytick_7">
     <g id="line2d_29">
      <g>
       <use style="stroke:#000000;stroke-width:0.5;" x="17.8515625" xlink:href="#m728421d6d4" y="138.319703283"/>
      </g>
     </g>
     <g id="line2d_30">
      <g>
       <use style="stroke:#000000;stroke-width:0.5;" x="705.22875" xlink:href="#mcb0005524f" y="138.319703283"/>
      </g>
     </g>
     <g id="text_15">
      <!-- 60 -->
      <g transform="translate(0.2165625 141.630953283)scale(0.12 -0.12)">
       <use xlink:href="#BitstreamVeraSans-Roman-36"/>
       <use x="63.623046875" xlink:href="#BitstreamVeraSans-Roman-30"/>
      </g>
     </g>
    </g>
    <g id="ytick_8">
     <g id="line2d_31">
      <g>
       <use style="stroke:#000000;stroke-width:0.5;" x="17.8515625" xlink:href="#m728421d6d4" y="54.351584596"/>
      </g>
     </g>
     <g id="line2d_32">
      <g>
       <use style="stroke:#000000;stroke-width:0.5;" x="705.22875" xlink:href="#mcb0005524f" y="54.351584596"/>
      </g>
     </g>
     <g id="text_16">
      <!-- 70 -->
      <g transform="translate(0.3628125 57.662834596)scale(0.12 -0.12)">
       <use xlink:href="#BitstreamVeraSans-Roman-37"/>
       <use x="63.623046875" xlink:href="#BitstreamVeraSans-Roman-30"/>
      </g>
     </g>
    </g>
   </g>
  </g>
  <g id="axes_2">
   <g id="patch_7">
    <path d="
M735.703 691.48
L1423.08 691.48
L1423.08 5
L735.703 5
z
" style="fill:#ffffff;"/>
   </g>
   <g id="patch_8">
    <path d="
M735.703 5" style="fill:none;stroke:#000000;stroke-linecap:square;stroke-linejoin:miter;"/>
   </g>
   <g id="patch_9">
    <path d="
M1423.08 691.48" style="fill:none;stroke:#000000;stroke-linecap:square;stroke-linejoin:miter;"/>
   </g>
   <g id="patch_10">
    <path d="
M735.703 691.48" style="fill:none;stroke:#000000;stroke-linecap:square;stroke-linejoin:miter;"/>
   </g>
   <g id="patch_11">
    <path d="
M735.703 691.48" style="fill:none;stroke:#000000;stroke-linecap:square;stroke-linejoin:miter;"/>
   </g>
   <g id="matplotlib.axis_3">
    <g id="xtick_9">
     <g id="line2d_33">
      <g>
       <use style="stroke:#000000;stroke-width:0.5;" x="755.906495592" xlink:href="#m93b0483c22" y="691.48"/>
      </g>
     </g>
     <g id="line2d_34">
      <g>
       <use style="stroke:#000000;stroke-width:0.5;" x="755.906495592" xlink:href="#m741efc42ff" y="5.0"/>
      </g>
     </g>
     <g id="text_17">
      <!-- 0 -->
      <g transform="translate(752.883058092 704.598125)scale(0.12 -0.12)">
       <use xlink:href="#BitstreamVeraSans-Roman-30"/>
      </g>
     </g>
    </g>
    <g id="xtick_10">
     <g id="line2d_35">
      <g>
       <use style="stroke:#000000;stroke-width:0.5;" x="853.932226094" xlink:href="#m93b0483c22" y="691.48"/>
      </g>
     </g>
     <g id="line2d_36">
      <g>
       <use style="stroke:#000000;stroke-width:0.5;" x="853.932226094" xlink:href="#m741efc42ff" y="5.0"/>
      </g>
     </g>
     <g id="text_18">
      <!-- 5 -->
      <g transform="translate(851.101913594 704.598125)scale(0.12 -0.12)">
       <use xlink:href="#BitstreamVeraSans-Roman-35"/>
      </g>
     </g>
    </g>
    <g id="xtick_11">
     <g id="line2d_37">
      <g>
       <use style="stroke:#000000;stroke-width:0.5;" x="951.957956597" xlink:href="#m93b0483c22" y="691.48"/>
      </g>
     </g>
     <g id="line2d_38">
      <g>
       <use style="stroke:#000000;stroke-width:0.5;" x="951.957956597" xlink:href="#m741efc42ff" y="5.0"/>
      </g>
     </g>
     <g id="text_19">
      <!-- 10 -->
      <g transform="translate(945.380456597 704.598125)scale(0.12 -0.12)">
       <use xlink:href="#BitstreamVeraSans-Roman-31"/>
       <use x="63.623046875" xlink:href="#BitstreamVeraSans-Roman-30"/>
      </g>
     </g>
    </g>
    <g id="xtick_12">
     <g id="line2d_39">
      <g>
       <use style="stroke:#000000;stroke-width:0.5;" x="1049.9836871" xlink:href="#m93b0483c22" y="691.48"/>
      </g>
     </g>
     <g id="line2d_40">
      <g>
       <use style="stroke:#000000;stroke-width:0.5;" x="1049.9836871" xlink:href="#m741efc42ff" y="5.0"/>
      </g>
     </g>
     <g id="text_20">
      <!-- 15 -->
      <g transform="translate(1043.5318121 704.598125)scale(0.12 -0.12)">
       <use xlink:href="#BitstreamVeraSans-Roman-31"/>
       <use x="63.623046875" xlink:href="#BitstreamVeraSans-Roman-35"/>
      </g>
     </g>
    </g>
    <g id="xtick_13">
     <g id="line2d_41">
      <g>
       <use style="stroke:#000000;stroke-width:0.5;" x="1148.0094176" xlink:href="#m93b0483c22" y="691.48"/>
      </g>
     </g>
     <g id="line2d_42">
      <g>
       <use style="stroke:#000000;stroke-width:0.5;" x="1148.0094176" xlink:href="#m741efc42ff" y="5.0"/>
      </g>
     </g>
     <g id="text_21">
      <!-- 20 -->
      <g transform="translate(1141.2125426 704.598125)scale(0.12 -0.12)">
       <use xlink:href="#BitstreamVeraSans-Roman-32"/>
       <use x="63.623046875" xlink:href="#BitstreamVeraSans-Roman-30"/>
      </g>
     </g>
    </g>
    <g id="xtick_14">
     <g id="line2d_43">
      <g>
       <use style="stroke:#000000;stroke-width:0.5;" x="1246.0351481" xlink:href="#m93b0483c22" y="691.48"/>
      </g>
     </g>
     <g id="line2d_44">
      <g>
       <use style="stroke:#000000;stroke-width:0.5;" x="1246.0351481" xlink:href="#m741efc42ff" y="5.0"/>
      </g>
     </g>
     <g id="text_22">
      <!-- 25 -->
      <g transform="translate(1239.3638981 704.598125)scale(0.12 -0.12)">
       <use xlink:href="#BitstreamVeraSans-Roman-32"/>
       <use x="63.623046875" xlink:href="#BitstreamVeraSans-Roman-35"/>
      </g>
     </g>
    </g>
    <g id="xtick_15">
     <g id="line2d_45">
      <g>
       <use style="stroke:#000000;stroke-width:0.5;" x="1344.06087861" xlink:href="#m93b0483c22" y="691.48"/>
      </g>
     </g>
     <g id="line2d_46">
      <g>
       <use style="stroke:#000000;stroke-width:0.5;" x="1344.06087861" xlink:href="#m741efc42ff" y="5.0"/>
      </g>
     </g>
     <g id="text_23">
      <!-- 30 -->
      <g transform="translate(1337.28181611 704.598125)scale(0.12 -0.12)">
       <use xlink:href="#BitstreamVeraSans-Roman-33"/>
       <use x="63.623046875" xlink:href="#BitstreamVeraSans-Roman-30"/>
      </g>
     </g>
    </g>
   </g>
   <g id="matplotlib.axis_4">
    <g id="ytick_9">
     <g id="line2d_47">
      <g>
       <use style="stroke:#000000;stroke-width:0.5;" x="735.7028125" xlink:href="#m728421d6d4" y="671.866285714"/>
      </g>
     </g>
     <g id="line2d_48">
      <g>
       <use style="stroke:#000000;stroke-width:0.5;" x="1423.08" xlink:href="#mcb0005524f" y="671.866285714"/>
      </g>
     </g>
     <g id="text_24">
      <!-- 0 -->
      <g transform="translate(725.6559375 675.177535714)scale(0.12 -0.12)">
       <use xlink:href="#BitstreamVeraSans-Roman-30"/>
      </g>
     </g>
    </g>
    <g id="ytick_10">
     <g id="line2d_49">
      <g>
       <use style="stroke:#000000;stroke-width:0.5;" x="735.7028125" xlink:href="#m728421d6d4" y="573.797714286"/>
      </g>
     </g>
     <g id="line2d_50">
      <g>
       <use style="stroke:#000000;stroke-width:0.5;" x="1423.08" xlink:href="#mcb0005524f" y="573.797714286"/>
      </g>
     </g>
     <g id="text_25">
      <!-- 5 -->
      <g transform="translate(726.0421875 577.108964286)scale(0.12 -0.12)">
       <use xlink:href="#BitstreamVeraSans-Roman-35"/>
      </g>
     </g>
    </g>
    <g id="ytick_11">
     <g id="line2d_51">
      <g>
       <use style="stroke:#000000;stroke-width:0.5;" x="735.7028125" xlink:href="#m728421d6d4" y="475.729142857"/>
      </g>
     </g>
     <g id="line2d_52">
      <g>
       <use style="stroke:#000000;stroke-width:0.5;" x="1423.08" xlink:href="#mcb0005524f" y="475.729142857"/>
      </g>
     </g>
     <g id="text_26">
      <!-- 10 -->
      <g transform="translate(718.5478125 479.040392857)scale(0.12 -0.12)">
       <use xlink:href="#BitstreamVeraSans-Roman-31"/>
       <use x="63.623046875" xlink:href="#BitstreamVeraSans-Roman-30"/>
      </g>
     </g>
    </g>
    <g id="ytick_12">
     <g id="line2d_53">
      <g>
       <use style="stroke:#000000;stroke-width:0.5;" x="735.7028125" xlink:href="#m728421d6d4" y="377.660571429"/>
      </g>
     </g>
     <g id="line2d_54">
      <g>
       <use style="stroke:#000000;stroke-width:0.5;" x="1423.08" xlink:href="#mcb0005524f" y="377.660571429"/>
      </g>
     </g>
     <g id="text_27">
      <!-- 15 -->
      <g transform="translate(718.7990625 380.971821429)scale(0.12 -0.12)">
       <use xlink:href="#BitstreamVeraSans-Roman-31"/>
       <use x="63.623046875" xlink:href="#BitstreamVeraSans-Roman-35"/>
      </g>
     </g>
    </g>
    <g id="ytick_13">
     <g id="line2d_55">
      <g>
       <use style="stroke:#000000;stroke-width:0.5;" x="735.7028125" xlink:href="#m728421d6d4" y="279.592"/>
      </g>
     </g>
     <g id="line2d_56">
      <g>
       <use style="stroke:#000000;stroke-width:0.5;" x="1423.08" xlink:href="#mcb0005524f" y="279.592"/>
      </g>
     </g>
     <g id="text_28">
      <!-- 20 -->
      <g transform="translate(718.1090625 282.90325)scale(0.12 -0.12)">
       <use xlink:href="#BitstreamVeraSans-Roman-32"/>
       <use x="63.623046875" xlink:href="#BitstreamVeraSans-Roman-30"/>
      </g>
     </g>
    </g>
    <g id="ytick_14">
     <g id="line2d_57">
      <g>
       <use style="stroke:#000000;stroke-width:0.5;" x="735.7028125" xlink:href="#m728421d6d4" y="181.523428571"/>
      </g>
     </g>
     <g id="line2d_58">
      <g>
       <use style="stroke:#000000;stroke-width:0.5;" x="1423.08" xlink:href="#mcb0005524f" y="181.523428571"/>
      </g>
     </g>
     <g id="text_29">
      <!-- 25 -->
      <g transform="translate(718.3603125 184.834678571)scale(0.12 -0.12)">
       <use xlink:href="#BitstreamVeraSans-Roman-32"/>
       <use x="63.623046875" xlink:href="#BitstreamVeraSans-Roman-35"/>
      </g>
     </g>
    </g>
    <g id="ytick_15">
     <g id="line2d_59">
      <g>
       <use style="stroke:#000000;stroke-width:0.5;" x="735.7028125" xlink:href="#m728421d6d4" y="83.4548571429"/>
      </g>
     </g>
     <g id="line2d_60">
      <g>
       <use style="stroke:#000000;stroke-width:0.5;" x="1423.08" xlink:href="#mcb0005524f" y="83.4548571429"/>
      </g>
     </g>
     <g id="text_30">
      <!-- 30 -->
      <g transform="translate(718.1446875 86.7661071429)scale(0.12 -0.12)">
       <use xlink:href="#BitstreamVeraSans-Roman-33"/>
       <use x="63.623046875" xlink:href="#BitstreamVeraSans-Roman-30"/>
      </g>
     </g>
    </g>
   </g>
  </g>
 </g>
 <defs>
  <clipPath id="p2bef1568ea">
   <rect height="686.48" width="687.3771875" x="17.8515625" y="5.0"/>
  </clipPath>
 </defs>
</svg>
