<?xml version="1.0" encoding="utf-8" standalone="no"?>
<!DOCTYPE svg PUBLIC "-//W3C//DTD SVG 1.1//EN"
  "http://www.w3.org/Graphics/SVG/1.1/DTD/svg11.dtd">
<!-- Created with matplotlib (http://matplotlib.org/) -->
<svg height="708pt" version="1.1" viewBox="0 0 705 708" width="705pt" xmlns="http://www.w3.org/2000/svg" xmlns:xlink="http://www.w3.org/1999/xlink">
 <defs>
  <style type="text/css">
*{stroke-linecap:butt;stroke-linejoin:round;}
  </style>
 </defs>
 <g id="figure_1">
  <g id="patch_1">
   <path d="
M0 708.08
L705.362 708.08
L705.362 0
L0 0
z
" style="fill:#ffffff;"/>
  </g>
  <g id="axes_1">
   <g id="patch_2">
    <path d="
M17.8516 691.48
L705.362 691.48
L705.362 5
L17.8516 5
z
" style="fill:#ffffff;"/>
   </g>
   <g id="PatchCollection_1">
    <defs>
     <path d="
M647.039 -74.2827
L647.039 -637.98
L76.1748 -637.98
L76.1748 -74.2827
z
" id="m2050db2be9" style="stroke:#000000;"/>
    </defs>
    <g clip-path="url(#p6c5ffd92dd)">
     <use style="fill:#ffffff;stroke:#000000;" x="0.0" xlink:href="#m2050db2be9" y="708.08"/>
    </g>
   </g>
   <g id="PatchCollection_2">
    <defs>
     <path d="
M291.176 -281.961
L498.763 -281.961
L498.763 -489.639
L291.176 -489.639
z
" id="md5ac36c846" style="stroke:#000000;stroke-width:2;"/>
    </defs>
    <g clip-path="url(#p6c5ffd92dd)">
     <use style="fill:#0080ff;stroke:#000000;stroke-width:2;" x="0.0" xlink:href="#md5ac36c846" y="708.08"/>
    </g>
   </g>
   <g id="PatchCollection_3">
    <defs>
     <path d="
M498.763 -489.639
L647.039 -489.639
L647.039 -637.98
L498.763 -637.98
z
" id="me960bc95a1" style="stroke:#000000;stroke-width:2;"/>
    </defs>
    <g clip-path="url(#p6c5ffd92dd)">
     <use style="fill:#ff0000;stroke:#000000;stroke-width:2;" x="0.0" xlink:href="#me960bc95a1" y="708.08"/>
    </g>
   </g>
   <g id="PatchCollection_4">
    <defs>
     <path d="
M76.1748 -178.122
L209.624 -178.122
L76.1748 -385.8
z
" id="md8a5310a94" style="stroke:#000000;stroke-width:2;"/>
    </defs>
    <g clip-path="url(#p6c5ffd92dd)">
     <use style="fill:#00ffff;stroke:#000000;stroke-width:2;" x="0.0" xlink:href="#md8a5310a94" y="708.08"/>
    </g>
   </g>
   <g id="PatchCollection_5">
    <defs>
     <path d="
M291.176 -281.961
L291.176 -74.2827
L394.969 -178.122
z
" id="m150a9a833a" style="stroke:#000000;stroke-width:2;"/>
    </defs>
    <g clip-path="url(#p6c5ffd92dd)">
     <use style="fill:#00ff80;stroke:#000000;stroke-width:2;" x="0.0" xlink:href="#m150a9a833a" y="708.08"/>
    </g>
   </g>
   <g id="PatchCollection_6">
    <defs>
     <path d="
M217.037 -89.1169
L291.176 -89.1169
L291.176 -222.624
L217.037 -222.624
z
" id="md73c7cec35" style="stroke:#000000;stroke-width:2;"/>
    </defs>
    <g clip-path="url(#p6c5ffd92dd)">
     <use style="fill:#8000ff;stroke:#000000;stroke-width:2;" x="0.0" xlink:href="#md73c7cec35" y="708.08"/>
    </g>
   </g>
   <g id="PatchCollection_7">
    <defs>
     <path d="
M291.176 -430.302
L291.176 -637.98
L113.244 -534.141
z
" id="m01c9d05b6c" style="stroke:#000000;stroke-width:2;"/>
    </defs>
    <g clip-path="url(#p6c5ffd92dd)">
     <use style="fill:#80ff00;stroke:#000000;stroke-width:2;" x="0.0" xlink:href="#m01c9d05b6c" y="708.08"/>
    </g>
   </g>
   <g id="PatchCollection_8">
    <defs>
     <path d="
M291.176 -489.639
L498.763 -489.639
L498.763 -623.146
L291.176 -623.146
z
" id="ma8e4894bcb" style="stroke:#000000;stroke-width:2;"/>
    </defs>
    <g clip-path="url(#p6c5ffd92dd)">
     <use style="fill:#00ff00;stroke:#000000;stroke-width:2;" x="0.0" xlink:href="#ma8e4894bcb" y="708.08"/>
    </g>
   </g>
   <g id="PatchCollection_9">
    <defs>
     <path d="
M291.176 -430.302
L142.899 -430.302
L142.899 -281.961
L291.176 -222.624
z
" id="m676525f47c" style="stroke:#000000;stroke-width:2;"/>
    </defs>
    <g clip-path="url(#p6c5ffd92dd)">
     <use style="fill:#ff0080;stroke:#000000;stroke-width:2;" x="0.0" xlink:href="#m676525f47c" y="708.08"/>
    </g>
   </g>
   <g id="PatchCollection_10">
    <defs>
     <path d="
M632.211 -192.956
L572.901 -341.297
L498.763 -341.297
L498.763 -192.956
z
" id="m6bee869ba1" style="stroke:#000000;stroke-width:2;"/>
    </defs>
    <g clip-path="url(#p6c5ffd92dd)">
     <use style="fill:#0000ff;stroke:#000000;stroke-width:2;" x="0.0" xlink:href="#m6bee869ba1" y="708.08"/>
    </g>
   </g>
   <g id="PatchCollection_11">
    <defs>
     <path d="
M498.763 -341.297
L647.039 -341.297
L647.039 -489.639
L498.763 -489.639
z
" id="m76faf86d84" style="stroke:#000000;stroke-width:2;"/>
    </defs>
    <g clip-path="url(#p6c5ffd92dd)">
     <use style="fill:#ff8000;stroke:#000000;stroke-width:2;" x="0.0" xlink:href="#m76faf86d84" y="708.08"/>
    </g>
   </g>
   <g id="PatchCollection_12">
    <defs>
     <path d="
M291.176 -74.2827
L498.763 -74.2827
L498.763 -281.961
z
" id="med8422b01a" style="stroke:#000000;stroke-width:2;"/>
    </defs>
    <g clip-path="url(#p6c5ffd92dd)">
     <use style="fill:#ff00ff;stroke:#000000;stroke-width:2;" x="0.0" xlink:href="#med8422b01a" y="708.08"/>
    </g>
   </g>
   <g id="PatchCollection_13">
    <defs>
     <path d="
M104.119 -410.904
L222.74 -470.24
L104.119 -529.577
z
" id="me1421cd7ae" style="stroke:#000000;stroke-width:2;"/>
    </defs>
    <g clip-path="url(#p6c5ffd92dd)">
     <use style="fill:#ffff00;stroke:#000000;stroke-width:2;" x="0.0" xlink:href="#me1421cd7ae" y="708.08"/>
    </g>
   </g>
   <g id="patch_3">
    <path d="
M17.8516 5
L705.362 5" style="fill:none;stroke:#000000;stroke-linecap:square;stroke-linejoin:miter;"/>
   </g>
   <g id="patch_4">
    <path d="
M705.362 691.48
L705.362 5" style="fill:none;stroke:#000000;stroke-linecap:square;stroke-linejoin:miter;"/>
   </g>
   <g id="patch_5">
    <path d="
M17.8516 691.48
L705.362 691.48" style="fill:none;stroke:#000000;stroke-linecap:square;stroke-linejoin:miter;"/>
   </g>
   <g id="patch_6">
    <path d="
M17.8516 691.48
L17.8516 5" style="fill:none;stroke:#000000;stroke-linecap:square;stroke-linejoin:miter;"/>
   </g>
   <g id="matplotlib.axis_1">
    <g id="xtick_1">
     <g id="line2d_1">
      <defs>
       <path d="
M0 0
L0 -4" id="m93b0483c22" style="stroke:#000000;stroke-width:0.5;"/>
      </defs>
      <g>
       <use style="stroke:#000000;stroke-width:0.5;" x="76.1747707528" xlink:href="#m93b0483c22" y="691.48"/>
      </g>
     </g>
     <g id="line2d_2">
      <defs>
       <path d="
M0 0
L0 4" id="m741efc42ff" style="stroke:#000000;stroke-width:0.5;"/>
      </defs>
      <g>
       <use style="stroke:#000000;stroke-width:0.5;" x="76.1747707528" xlink:href="#m741efc42ff" y="5.0"/>
      </g>
     </g>
     <g id="text_1">
      <!-- 0 -->
      <defs>
       <path d="
M31.7812 66.4062
Q24.1719 66.4062 20.3281 58.9062
Q16.5 51.4219 16.5 36.375
Q16.5 21.3906 20.3281 13.8906
Q24.1719 6.39062 31.7812 6.39062
Q39.4531 6.39062 43.2812 13.8906
Q47.125 21.3906 47.125 36.375
Q47.125 51.4219 43.2812 58.9062
Q39.4531 66.4062 31.7812 66.4062
M31.7812 74.2188
Q44.0469 74.2188 50.5156 64.5156
Q56.9844 54.8281 56.9844 36.375
Q56.9844 17.9688 50.5156 8.26562
Q44.0469 -1.42188 31.7812 -1.42188
Q19.5312 -1.42188 13.0625 8.26562
Q6.59375 17.9688 6.59375 36.375
Q6.59375 54.8281 13.0625 64.5156
Q19.5312 74.2188 31.7812 74.2188" id="BitstreamVeraSans-Roman-30"/>
      </defs>
      <g transform="translate(73.1513332528 704.598125)scale(0.12 -0.12)">
       <use xlink:href="#BitstreamVeraSans-Roman-30"/>
      </g>
     </g>
    </g>
    <g id="xtick_2">
     <g id="line2d_3">
      <g>
       <use style="stroke:#000000;stroke-width:0.5;" x="224.451229128" xlink:href="#m93b0483c22" y="691.48"/>
      </g>
     </g>
     <g id="line2d_4">
      <g>
       <use style="stroke:#000000;stroke-width:0.5;" x="224.451229128" xlink:href="#m741efc42ff" y="5.0"/>
      </g>
     </g>
     <g id="text_2">
      <!-- 10 -->
      <defs>
       <path d="
M12.4062 8.29688
L28.5156 8.29688
L28.5156 63.9219
L10.9844 60.4062
L10.9844 69.3906
L28.4219 72.9062
L38.2812 72.9062
L38.2812 8.29688
L54.3906 8.29688
L54.3906 0
L12.4062 0
z
" id="BitstreamVeraSans-Roman-31"/>
      </defs>
      <g transform="translate(217.873729128 704.598125)scale(0.12 -0.12)">
       <use xlink:href="#BitstreamVeraSans-Roman-31"/>
       <use x="63.623046875" xlink:href="#BitstreamVeraSans-Roman-30"/>
      </g>
     </g>
    </g>
    <g id="xtick_3">
     <g id="line2d_5">
      <g>
       <use style="stroke:#000000;stroke-width:0.5;" x="372.727687503" xlink:href="#m93b0483c22" y="691.48"/>
      </g>
     </g>
     <g id="line2d_6">
      <g>
       <use style="stroke:#000000;stroke-width:0.5;" x="372.727687503" xlink:href="#m741efc42ff" y="5.0"/>
      </g>
     </g>
     <g id="text_3">
      <!-- 20 -->
      <defs>
       <path d="
M19.1875 8.29688
L53.6094 8.29688
L53.6094 0
L7.32812 0
L7.32812 8.29688
Q12.9375 14.1094 22.625 23.8906
Q32.3281 33.6875 34.8125 36.5312
Q39.5469 41.8438 41.4219 45.5312
Q43.3125 49.2188 43.3125 52.7812
Q43.3125 58.5938 39.2344 62.25
Q35.1562 65.9219 28.6094 65.9219
Q23.9688 65.9219 18.8125 64.3125
Q13.6719 62.7031 7.8125 59.4219
L7.8125 69.3906
Q13.7656 71.7812 18.9375 73
Q24.125 74.2188 28.4219 74.2188
Q39.75 74.2188 46.4844 68.5469
Q53.2188 62.8906 53.2188 53.4219
Q53.2188 48.9219 51.5312 44.8906
Q49.8594 40.875 45.4062 35.4062
Q44.1875 33.9844 37.6406 27.2188
Q31.1094 20.4531 19.1875 8.29688" id="BitstreamVeraSans-Roman-32"/>
      </defs>
      <g transform="translate(365.930812503 704.598125)scale(0.12 -0.12)">
       <use xlink:href="#BitstreamVeraSans-Roman-32"/>
       <use x="63.623046875" xlink:href="#BitstreamVeraSans-Roman-30"/>
      </g>
     </g>
    </g>
    <g id="xtick_4">
     <g id="line2d_7">
      <g>
       <use style="stroke:#000000;stroke-width:0.5;" x="521.004145878" xlink:href="#m93b0483c22" y="691.48"/>
      </g>
     </g>
     <g id="line2d_8">
      <g>
       <use style="stroke:#000000;stroke-width:0.5;" x="521.004145878" xlink:href="#m741efc42ff" y="5.0"/>
      </g>
     </g>
     <g id="text_4">
      <!-- 30 -->
      <defs>
       <path d="
M40.5781 39.3125
Q47.6562 37.7969 51.625 33
Q55.6094 28.2188 55.6094 21.1875
Q55.6094 10.4062 48.1875 4.48438
Q40.7656 -1.42188 27.0938 -1.42188
Q22.5156 -1.42188 17.6562 -0.515625
Q12.7969 0.390625 7.625 2.20312
L7.625 11.7188
Q11.7188 9.32812 16.5938 8.10938
Q21.4844 6.89062 26.8125 6.89062
Q36.0781 6.89062 40.9375 10.5469
Q45.7969 14.2031 45.7969 21.1875
Q45.7969 27.6406 41.2812 31.2656
Q36.7656 34.9062 28.7188 34.9062
L20.2188 34.9062
L20.2188 43.0156
L29.1094 43.0156
Q36.375 43.0156 40.2344 45.9219
Q44.0938 48.8281 44.0938 54.2969
Q44.0938 59.9062 40.1094 62.9062
Q36.1406 65.9219 28.7188 65.9219
Q24.6562 65.9219 20.0156 65.0312
Q15.375 64.1562 9.8125 62.3125
L9.8125 71.0938
Q15.4375 72.6562 20.3438 73.4375
Q25.25 74.2188 29.5938 74.2188
Q40.8281 74.2188 47.3594 69.1094
Q53.9062 64.0156 53.9062 55.3281
Q53.9062 49.2656 50.4375 45.0938
Q46.9688 40.9219 40.5781 39.3125" id="BitstreamVeraSans-Roman-33"/>
      </defs>
      <g transform="translate(514.225083378 704.598125)scale(0.12 -0.12)">
       <use xlink:href="#BitstreamVeraSans-Roman-33"/>
       <use x="63.623046875" xlink:href="#BitstreamVeraSans-Roman-30"/>
      </g>
     </g>
    </g>
    <g id="xtick_5">
     <g id="line2d_9">
      <g>
       <use style="stroke:#000000;stroke-width:0.5;" x="669.280604253" xlink:href="#m93b0483c22" y="691.48"/>
      </g>
     </g>
     <g id="line2d_10">
      <g>
       <use style="stroke:#000000;stroke-width:0.5;" x="669.280604253" xlink:href="#m741efc42ff" y="5.0"/>
      </g>
     </g>
     <g id="text_5">
      <!-- 40 -->
      <defs>
       <path d="
M37.7969 64.3125
L12.8906 25.3906
L37.7969 25.3906
z

M35.2031 72.9062
L47.6094 72.9062
L47.6094 25.3906
L58.0156 25.3906
L58.0156 17.1875
L47.6094 17.1875
L47.6094 0
L37.7969 0
L37.7969 17.1875
L4.89062 17.1875
L4.89062 26.7031
z
" id="BitstreamVeraSans-Roman-34"/>
      </defs>
      <g transform="translate(662.337479253 704.598125)scale(0.12 -0.12)">
       <use xlink:href="#BitstreamVeraSans-Roman-34"/>
       <use x="63.623046875" xlink:href="#BitstreamVeraSans-Roman-30"/>
      </g>
     </g>
    </g>
   </g>
   <g id="matplotlib.axis_2">
    <g id="ytick_1">
     <g id="line2d_11">
      <defs>
       <path d="
M0 0
L4 0" id="m728421d6d4" style="stroke:#000000;stroke-width:0.5;"/>
      </defs>
      <g>
       <use style="stroke:#000000;stroke-width:0.5;" x="17.8515625" xlink:href="#m728421d6d4" y="633.79729261"/>
      </g>
     </g>
     <g id="line2d_12">
      <defs>
       <path d="
M0 0
L-4 0" id="mcb0005524f" style="stroke:#000000;stroke-width:0.5;"/>
      </defs>
      <g>
       <use style="stroke:#000000;stroke-width:0.5;" x="705.36234375" xlink:href="#mcb0005524f" y="633.79729261"/>
      </g>
     </g>
     <g id="text_6">
      <!-- 0 -->
      <g transform="translate(7.8046875 637.10854261)scale(0.12 -0.12)">
       <use xlink:href="#BitstreamVeraSans-Roman-30"/>
      </g>
     </g>
    </g>
    <g id="ytick_2">
     <g id="line2d_13">
      <g>
       <use style="stroke:#000000;stroke-width:0.5;" x="17.8515625" xlink:href="#m728421d6d4" y="485.455841903"/>
      </g>
     </g>
     <g id="line2d_14">
      <g>
       <use style="stroke:#000000;stroke-width:0.5;" x="705.36234375" xlink:href="#mcb0005524f" y="485.455841903"/>
      </g>
     </g>
     <g id="text_7">
      <!-- 10 -->
      <g transform="translate(0.6965625 488.767091903)scale(0.12 -0.12)">
       <use xlink:href="#BitstreamVeraSans-Roman-31"/>
       <use x="63.623046875" xlink:href="#BitstreamVeraSans-Roman-30"/>
      </g>
     </g>
    </g>
    <g id="ytick_3">
     <g id="line2d_15">
      <g>
       <use style="stroke:#000000;stroke-width:0.5;" x="17.8515625" xlink:href="#m728421d6d4" y="337.114391197"/>
      </g>
     </g>
     <g id="line2d_16">
      <g>
       <use style="stroke:#000000;stroke-width:0.5;" x="705.36234375" xlink:href="#mcb0005524f" y="337.114391197"/>
      </g>
     </g>
     <g id="text_8">
      <!-- 20 -->
      <g transform="translate(0.2578125 340.425641197)scale(0.12 -0.12)">
       <use xlink:href="#BitstreamVeraSans-Roman-32"/>
       <use x="63.623046875" xlink:href="#BitstreamVeraSans-Roman-30"/>
      </g>
     </g>
    </g>
    <g id="ytick_4">
     <g id="line2d_17">
      <g>
       <use style="stroke:#000000;stroke-width:0.5;" x="17.8515625" xlink:href="#m728421d6d4" y="188.772940491"/>
      </g>
     </g>
     <g id="line2d_18">
      <g>
       <use style="stroke:#000000;stroke-width:0.5;" x="705.36234375" xlink:href="#mcb0005524f" y="188.772940491"/>
      </g>
     </g>
     <g id="text_9">
      <!-- 30 -->
      <g transform="translate(0.2934375 192.084190491)scale(0.12 -0.12)">
       <use xlink:href="#BitstreamVeraSans-Roman-33"/>
       <use x="63.623046875" xlink:href="#BitstreamVeraSans-Roman-30"/>
      </g>
     </g>
    </g>
    <g id="ytick_5">
     <g id="line2d_19">
      <g>
       <use style="stroke:#000000;stroke-width:0.5;" x="17.8515625" xlink:href="#m728421d6d4" y="40.4314897841"/>
      </g>
     </g>
     <g id="line2d_20">
      <g>
       <use style="stroke:#000000;stroke-width:0.5;" x="705.36234375" xlink:href="#mcb0005524f" y="40.4314897841"/>
      </g>
     </g>
     <g id="text_10">
      <!-- 40 -->
      <g transform="translate(-0.0346875 43.7427397841)scale(0.12 -0.12)">
       <use xlink:href="#BitstreamVeraSans-Roman-34"/>
       <use x="63.623046875" xlink:href="#BitstreamVeraSans-Roman-30"/>
      </g>
     </g>
    </g>
   </g>
  </g>
  <g id="axes_2">
   <g id="patch_7">
    <path d="
M735.569 691.48
L1423.08 691.48
L1423.08 5
L735.569 5
z
" style="fill:#ffffff;"/>
   </g>
   <g id="patch_8">
    <path d="
M735.569 5" style="fill:none;stroke:#000000;stroke-linecap:square;stroke-linejoin:miter;"/>
   </g>
   <g id="patch_9">
    <path d="
M1423.08 691.48" style="fill:none;stroke:#000000;stroke-linecap:square;stroke-linejoin:miter;"/>
   </g>
   <g id="patch_10">
    <path d="
M735.569 691.48" style="fill:none;stroke:#000000;stroke-linecap:square;stroke-linejoin:miter;"/>
   </g>
   <g id="patch_11">
    <path d="
M735.569 691.48" style="fill:none;stroke:#000000;stroke-linecap:square;stroke-linejoin:miter;"/>
   </g>
   <g id="matplotlib.axis_3">
    <g id="xtick_6">
     <g id="line2d_21">
      <g>
       <use style="stroke:#000000;stroke-width:0.5;" x="776.642365714" xlink:href="#m93b0483c22" y="691.48"/>
      </g>
     </g>
     <g id="line2d_22">
      <g>
       <use style="stroke:#000000;stroke-width:0.5;" x="776.642365714" xlink:href="#m741efc42ff" y="5.0"/>
      </g>
     </g>
     <g id="text_11">
      <!-- 0 -->
      <g transform="translate(773.618928214 704.598125)scale(0.12 -0.12)">
       <use xlink:href="#BitstreamVeraSans-Roman-30"/>
      </g>
     </g>
    </g>
    <g id="xtick_7">
     <g id="line2d_23">
      <g>
       <use style="stroke:#000000;stroke-width:0.5;" x="863.12300676" xlink:href="#m93b0483c22" y="691.48"/>
      </g>
     </g>
     <g id="line2d_24">
      <g>
       <use style="stroke:#000000;stroke-width:0.5;" x="863.12300676" xlink:href="#m741efc42ff" y="5.0"/>
      </g>
     </g>
     <g id="text_12">
      <!-- 2 -->
      <g transform="translate(860.34613176 704.598125)scale(0.12 -0.12)">
       <use xlink:href="#BitstreamVeraSans-Roman-32"/>
      </g>
     </g>
    </g>
    <g id="xtick_8">
     <g id="line2d_25">
      <g>
       <use style="stroke:#000000;stroke-width:0.5;" x="949.603647806" xlink:href="#m93b0483c22" y="691.48"/>
      </g>
     </g>
     <g id="line2d_26">
      <g>
       <use style="stroke:#000000;stroke-width:0.5;" x="949.603647806" xlink:href="#m741efc42ff" y="5.0"/>
      </g>
     </g>
     <g id="text_13">
      <!-- 4 -->
      <g transform="translate(946.416147806 704.598125)scale(0.12 -0.12)">
       <use xlink:href="#BitstreamVeraSans-Roman-34"/>
      </g>
     </g>
    </g>
    <g id="xtick_9">
     <g id="line2d_27">
      <g>
       <use style="stroke:#000000;stroke-width:0.5;" x="1036.08428885" xlink:href="#m93b0483c22" y="691.48"/>
      </g>
     </g>
     <g id="line2d_28">
      <g>
       <use style="stroke:#000000;stroke-width:0.5;" x="1036.08428885" xlink:href="#m741efc42ff" y="5.0"/>
      </g>
     </g>
     <g id="text_14">
      <!-- 6 -->
      <defs>
       <path d="
M33.0156 40.375
Q26.375 40.375 22.4844 35.8281
Q18.6094 31.2969 18.6094 23.3906
Q18.6094 15.5312 22.4844 10.9531
Q26.375 6.39062 33.0156 6.39062
Q39.6562 6.39062 43.5312 10.9531
Q47.4062 15.5312 47.4062 23.3906
Q47.4062 31.2969 43.5312 35.8281
Q39.6562 40.375 33.0156 40.375
M52.5938 71.2969
L52.5938 62.3125
Q48.875 64.0625 45.0938 64.9844
Q41.3125 65.9219 37.5938 65.9219
Q27.8281 65.9219 22.6719 59.3281
Q17.5312 52.7344 16.7969 39.4062
Q19.6719 43.6562 24.0156 45.9219
Q28.375 48.1875 33.5938 48.1875
Q44.5781 48.1875 50.9531 41.5156
Q57.3281 34.8594 57.3281 23.3906
Q57.3281 12.1562 50.6875 5.35938
Q44.0469 -1.42188 33.0156 -1.42188
Q20.3594 -1.42188 13.6719 8.26562
Q6.98438 17.9688 6.98438 36.375
Q6.98438 53.6562 15.1875 63.9375
Q23.3906 74.2188 37.2031 74.2188
Q40.9219 74.2188 44.7031 73.4844
Q48.4844 72.75 52.5938 71.2969" id="BitstreamVeraSans-Roman-36"/>
      </defs>
      <g transform="translate(1033.06366385 704.598125)scale(0.12 -0.12)">
       <use xlink:href="#BitstreamVeraSans-Roman-36"/>
      </g>
     </g>
    </g>
    <g id="xtick_10">
     <g id="line2d_29">
      <g>
       <use style="stroke:#000000;stroke-width:0.5;" x="1122.5649299" xlink:href="#m93b0483c22" y="691.48"/>
      </g>
     </g>
     <g id="line2d_30">
      <g>
       <use style="stroke:#000000;stroke-width:0.5;" x="1122.5649299" xlink:href="#m741efc42ff" y="5.0"/>
      </g>
     </g>
     <g id="text_15">
      <!-- 8 -->
      <defs>
       <path d="
M31.7812 34.625
Q24.75 34.625 20.7188 30.8594
Q16.7031 27.0938 16.7031 20.5156
Q16.7031 13.9219 20.7188 10.1562
Q24.75 6.39062 31.7812 6.39062
Q38.8125 6.39062 42.8594 10.1719
Q46.9219 13.9688 46.9219 20.5156
Q46.9219 27.0938 42.8906 30.8594
Q38.875 34.625 31.7812 34.625
M21.9219 38.8125
Q15.5781 40.375 12.0312 44.7188
Q8.5 49.0781 8.5 55.3281
Q8.5 64.0625 14.7188 69.1406
Q20.9531 74.2188 31.7812 74.2188
Q42.6719 74.2188 48.875 69.1406
Q55.0781 64.0625 55.0781 55.3281
Q55.0781 49.0781 51.5312 44.7188
Q48 40.375 41.7031 38.8125
Q48.8281 37.1562 52.7969 32.3125
Q56.7812 27.4844 56.7812 20.5156
Q56.7812 9.90625 50.3125 4.23438
Q43.8438 -1.42188 31.7812 -1.42188
Q19.7344 -1.42188 13.25 4.23438
Q6.78125 9.90625 6.78125 20.5156
Q6.78125 27.4844 10.7812 32.3125
Q14.7969 37.1562 21.9219 38.8125
M18.3125 54.3906
Q18.3125 48.7344 21.8438 45.5625
Q25.3906 42.3906 31.7812 42.3906
Q38.1406 42.3906 41.7188 45.5625
Q45.3125 48.7344 45.3125 54.3906
Q45.3125 60.0625 41.7188 63.2344
Q38.1406 66.4062 31.7812 66.4062
Q25.3906 66.4062 21.8438 63.2344
Q18.3125 60.0625 18.3125 54.3906" id="BitstreamVeraSans-Roman-38"/>
      </defs>
      <g transform="translate(1119.5649299 704.598125)scale(0.12 -0.12)">
       <use xlink:href="#BitstreamVeraSans-Roman-38"/>
      </g>
     </g>
    </g>
    <g id="xtick_11">
     <g id="line2d_31">
      <g>
       <use style="stroke:#000000;stroke-width:0.5;" x="1209.04557094" xlink:href="#m93b0483c22" y="691.48"/>
      </g>
     </g>
     <g id="line2d_32">
      <g>
       <use style="stroke:#000000;stroke-width:0.5;" x="1209.04557094" xlink:href="#m741efc42ff" y="5.0"/>
      </g>
     </g>
     <g id="text_16">
      <!-- 10 -->
      <g transform="translate(1202.46807094 704.598125)scale(0.12 -0.12)">
       <use xlink:href="#BitstreamVeraSans-Roman-31"/>
       <use x="63.623046875" xlink:href="#BitstreamVeraSans-Roman-30"/>
      </g>
     </g>
    </g>
    <g id="xtick_12">
     <g id="line2d_33">
      <g>
       <use style="stroke:#000000;stroke-width:0.5;" x="1295.52621199" xlink:href="#m93b0483c22" y="691.48"/>
      </g>
     </g>
     <g id="line2d_34">
      <g>
       <use style="stroke:#000000;stroke-width:0.5;" x="1295.52621199" xlink:href="#m741efc42ff" y="5.0"/>
      </g>
     </g>
     <g id="text_17">
      <!-- 12 -->
      <g transform="translate(1289.15121199 704.598125)scale(0.12 -0.12)">
       <use xlink:href="#BitstreamVeraSans-Roman-31"/>
       <use x="63.623046875" xlink:href="#BitstreamVeraSans-Roman-32"/>
      </g>
     </g>
    </g>
    <g id="xtick_13">
     <g id="line2d_35">
      <g>
       <use style="stroke:#000000;stroke-width:0.5;" x="1382.00685304" xlink:href="#m93b0483c22" y="691.48"/>
      </g>
     </g>
     <g id="line2d_36">
      <g>
       <use style="stroke:#000000;stroke-width:0.5;" x="1382.00685304" xlink:href="#m741efc42ff" y="5.0"/>
      </g>
     </g>
     <g id="text_18">
      <!-- 14 -->
      <g transform="translate(1375.36747804 704.598125)scale(0.12 -0.12)">
       <use xlink:href="#BitstreamVeraSans-Roman-31"/>
       <use x="63.623046875" xlink:href="#BitstreamVeraSans-Roman-34"/>
      </g>
     </g>
    </g>
   </g>
   <g id="matplotlib.axis_4">
    <g id="ytick_6">
     <g id="line2d_37">
      <g>
       <use style="stroke:#000000;stroke-width:0.5;" x="735.56921875" xlink:href="#m728421d6d4" y="651.054914921"/>
      </g>
     </g>
     <g id="line2d_38">
      <g>
       <use style="stroke:#000000;stroke-width:0.5;" x="1423.08" xlink:href="#mcb0005524f" y="651.054914921"/>
      </g>
     </g>
     <g id="text_19">
      <!-- 0 -->
      <g transform="translate(725.52234375 654.366164921)scale(0.12 -0.12)">
       <use xlink:href="#BitstreamVeraSans-Roman-30"/>
      </g>
     </g>
    </g>
    <g id="ytick_7">
     <g id="line2d_39">
      <g>
       <use style="stroke:#000000;stroke-width:0.5;" x="735.56921875" xlink:href="#m728421d6d4" y="564.536367801"/>
      </g>
     </g>
     <g id="line2d_40">
      <g>
       <use style="stroke:#000000;stroke-width:0.5;" x="1423.08" xlink:href="#mcb0005524f" y="564.536367801"/>
      </g>
     </g>
     <g id="text_20">
      <!-- 2 -->
      <g transform="translate(726.01546875 567.847617801)scale(0.12 -0.12)">
       <use xlink:href="#BitstreamVeraSans-Roman-32"/>
      </g>
     </g>
    </g>
    <g id="ytick_8">
     <g id="line2d_41">
      <g>
       <use style="stroke:#000000;stroke-width:0.5;" x="735.56921875" xlink:href="#m728421d6d4" y="478.017820681"/>
      </g>
     </g>
     <g id="line2d_42">
      <g>
       <use style="stroke:#000000;stroke-width:0.5;" x="1423.08" xlink:href="#mcb0005524f" y="478.017820681"/>
      </g>
     </g>
     <g id="text_21">
      <!-- 4 -->
      <g transform="translate(725.19421875 481.329070681)scale(0.12 -0.12)">
       <use xlink:href="#BitstreamVeraSans-Roman-34"/>
      </g>
     </g>
    </g>
    <g id="ytick_9">
     <g id="line2d_43">
      <g>
       <use style="stroke:#000000;stroke-width:0.5;" x="735.56921875" xlink:href="#m728421d6d4" y="391.49927356"/>
      </g>
     </g>
     <g id="line2d_44">
      <g>
       <use style="stroke:#000000;stroke-width:0.5;" x="1423.08" xlink:href="#mcb0005524f" y="391.49927356"/>
      </g>
     </g>
     <g id="text_22">
      <!-- 6 -->
      <g transform="translate(725.52796875 394.81052356)scale(0.12 -0.12)">
       <use xlink:href="#BitstreamVeraSans-Roman-36"/>
      </g>
     </g>
    </g>
    <g id="ytick_10">
     <g id="line2d_45">
      <g>
       <use style="stroke:#000000;stroke-width:0.5;" x="735.56921875" xlink:href="#m728421d6d4" y="304.98072644"/>
      </g>
     </g>
     <g id="line2d_46">
      <g>
       <use style="stroke:#000000;stroke-width:0.5;" x="1423.08" xlink:href="#mcb0005524f" y="304.98072644"/>
      </g>
     </g>
     <g id="text_23">
      <!-- 8 -->
      <g transform="translate(725.56921875 308.29197644)scale(0.12 -0.12)">
       <use xlink:href="#BitstreamVeraSans-Roman-38"/>
      </g>
     </g>
    </g>
    <g id="ytick_11">
     <g id="line2d_47">
      <g>
       <use style="stroke:#000000;stroke-width:0.5;" x="735.56921875" xlink:href="#m728421d6d4" y="218.462179319"/>
      </g>
     </g>
     <g id="line2d_48">
      <g>
       <use style="stroke:#000000;stroke-width:0.5;" x="1423.08" xlink:href="#mcb0005524f" y="218.462179319"/>
      </g>
     </g>
     <g id="text_24">
      <!-- 10 -->
      <g transform="translate(718.41421875 221.773429319)scale(0.12 -0.12)">
       <use xlink:href="#BitstreamVeraSans-Roman-31"/>
       <use x="63.623046875" xlink:href="#BitstreamVeraSans-Roman-30"/>
      </g>
     </g>
    </g>
    <g id="ytick_12">
     <g id="line2d_49">
      <g>
       <use style="stroke:#000000;stroke-width:0.5;" x="735.56921875" xlink:href="#m728421d6d4" y="131.943632199"/>
      </g>
     </g>
     <g id="line2d_50">
      <g>
       <use style="stroke:#000000;stroke-width:0.5;" x="1423.08" xlink:href="#mcb0005524f" y="131.943632199"/>
      </g>
     </g>
     <g id="text_25">
      <!-- 12 -->
      <g transform="translate(718.81921875 135.254882199)scale(0.12 -0.12)">
       <use xlink:href="#BitstreamVeraSans-Roman-31"/>
       <use x="63.623046875" xlink:href="#BitstreamVeraSans-Roman-32"/>
      </g>
     </g>
    </g>
    <g id="ytick_13">
     <g id="line2d_51">
      <g>
       <use style="stroke:#000000;stroke-width:0.5;" x="735.56921875" xlink:href="#m728421d6d4" y="45.4250850786"/>
      </g>
     </g>
     <g id="line2d_52">
      <g>
       <use style="stroke:#000000;stroke-width:0.5;" x="1423.08" xlink:href="#mcb0005524f" y="45.4250850786"/>
      </g>
     </g>
     <g id="text_26">
      <!-- 14 -->
      <g transform="translate(718.29046875 48.7363350786)scale(0.12 -0.12)">
       <use xlink:href="#BitstreamVeraSans-Roman-31"/>
       <use x="63.623046875" xlink:href="#BitstreamVeraSans-Roman-34"/>
      </g>
     </g>
    </g>
   </g>
  </g>
 </g>
 <defs>
  <clipPath id="p6c5ffd92dd">
   <rect height="686.48" width="687.51078125" x="17.8515625" y="5.0"/>
  </clipPath>
 </defs>
</svg>
