<?xml version="1.0" encoding="utf-8" standalone="no"?>
<!DOCTYPE svg PUBLIC "-//W3C//DTD SVG 1.1//EN"
  "http://www.w3.org/Graphics/SVG/1.1/DTD/svg11.dtd">
<!-- Created with matplotlib (http://matplotlib.org/) -->
<svg height="708pt" version="1.1" viewBox="0 0 705 708" width="705pt" xmlns="http://www.w3.org/2000/svg" xmlns:xlink="http://www.w3.org/1999/xlink">
 <defs>
  <style type="text/css">
*{stroke-linecap:butt;stroke-linejoin:round;}
  </style>
 </defs>
 <g id="figure_1">
  <g id="patch_1">
   <path d="
M0 708.08
L705.426 708.08
L705.426 0
L0 0
z
" style="fill:#ffffff;"/>
  </g>
  <g id="axes_1">
   <g id="patch_2">
    <path d="
M17.8516 691.48
L705.426 691.48
L705.426 5
L17.8516 5
z
" style="fill:#ffffff;"/>
   </g>
   <g id="PatchCollection_1">
    <defs>
     <path d="
M317.291 -66.0647
L317.291 -661.761
L68.4324 -661.761
L68.4324 -66.0647
z
" id="m1564ec60c6" style="stroke:#000000;"/>
    </defs>
    <g clip-path="url(#p81dc710297)">
     <use style="fill:#ffffff;stroke:#000000;" x="0.0" xlink:href="#m1564ec60c6" y="708.08"/>
    </g>
   </g>
   <g id="PatchCollection_2">
    <defs>
     <path d="
M147.422 -283.068
L232.356 -240.518
L232.356 -325.618
z
" id="mcab19d92cb" style="stroke:#000000;stroke-width:2;"/>
    </defs>
    <g clip-path="url(#p81dc710297)">
     <use style="fill:#8fff00;stroke:#000000;stroke-width:2;" x="0.0" xlink:href="#mcab19d92cb" y="708.08"/>
    </g>
   </g>
   <g id="PatchCollection_3">
    <defs>
     <path d="
M70.9804 -219.244
L70.9804 -168.184
L96.4608 -168.184
L96.4608 -193.714
L121.941 -193.714
L121.941 -219.244
z
" id="ma66ac7fa2d" style="stroke:#000000;stroke-width:2;"/>
    </defs>
    <g clip-path="url(#p81dc710297)">
     <use style="fill:#00e0ff;stroke:#000000;stroke-width:2;" x="0.0" xlink:href="#ma66ac7fa2d" y="708.08"/>
    </g>
   </g>
   <g id="PatchCollection_4">
    <defs>
     <path d="
M317.291 -323.49
L317.291 -408.59
L232.356 -408.59
L232.356 -391.57
L300.304 -391.57
L300.304 -340.51
L232.356 -340.51
L232.356 -323.49
z
" id="mf875ecf0e3" style="stroke:#000000;stroke-width:2;"/>
    </defs>
    <g clip-path="url(#p81dc710297)">
     <use style="fill:#ff00b8;stroke:#000000;stroke-width:2;" x="0.0" xlink:href="#mf875ecf0e3" y="708.08"/>
    </g>
   </g>
   <g id="PatchCollection_5">
    <defs>
     <path d="
M121.941 -363.913
L155.915 -406.462
L121.941 -449.012
L87.9673 -406.462
z
" id="m63d998f925" style="stroke:#000000;stroke-width:2;"/>
    </defs>
    <g clip-path="url(#p81dc710297)">
     <use style="fill:#52ff00;stroke:#000000;stroke-width:2;" x="0.0" xlink:href="#m63d998f925" y="708.08"/>
    </g>
   </g>
   <g id="PatchCollection_6">
    <defs>
     <path d="
M79.4739 -83.0846
L130.435 -83.0846
L130.435 -108.614
L104.954 -108.614
L104.954 -134.144
L79.4739 -134.144
z
" id="m142c8ec54c" style="stroke:#000000;stroke-width:2;"/>
    </defs>
    <g clip-path="url(#p81dc710297)">
     <use style="fill:#00ff66;stroke:#000000;stroke-width:2;" x="0.0" xlink:href="#m142c8ec54c" y="708.08"/>
    </g>
   </g>
   <g id="PatchCollection_7">
    <defs>
     <path d="
M130.435 -453.267
L181.395 -419.227
L232.356 -453.267
L181.395 -487.307
z
" id="m10518cf1fb" style="stroke:#000000;stroke-width:2;"/>
    </defs>
    <g clip-path="url(#p81dc710297)">
     <use style="fill:#ff0000;stroke:#000000;stroke-width:2;" x="0.0" xlink:href="#m10518cf1fb" y="708.08"/>
    </g>
   </g>
   <g id="PatchCollection_8">
    <defs>
     <path d="
M181.395 -487.307
L79.4739 -538.366
L79.4739 -436.247
z
" id="m3a62a75b08" style="stroke:#000000;stroke-width:2;"/>
    </defs>
    <g clip-path="url(#p81dc710297)">
     <use style="fill:#fff500;stroke:#000000;stroke-width:2;" x="0.0" xlink:href="#m3a62a75b08" y="708.08"/>
    </g>
   </g>
   <g id="PatchCollection_9">
    <defs>
     <path d="
M189.889 -159.674
L223.863 -159.674
L223.863 -227.754
L155.915 -227.754
L155.915 -193.714
L189.889 -193.714
z
" id="m741d6ca9d1" style="stroke:#000000;stroke-width:2;"/>
    </defs>
    <g clip-path="url(#p81dc710297)">
     <use style="fill:#00ffa3;stroke:#000000;stroke-width:2;" x="0.0" xlink:href="#m741d6ca9d1" y="708.08"/>
    </g>
   </g>
   <g id="PatchCollection_10">
    <defs>
     <path d="
M189.889 -151.164
L189.889 -193.714
L104.954 -193.714
L104.954 -108.614
L147.422 -108.614
L147.422 -151.164
z
" id="me7ddbea596" style="stroke:#000000;stroke-width:2;"/>
    </defs>
    <g clip-path="url(#p81dc710297)">
     <use style="fill:#ff3d00;stroke:#000000;stroke-width:2;" x="0.0" xlink:href="#me7ddbea596" y="708.08"/>
    </g>
   </g>
   <g id="PatchCollection_11">
    <defs>
     <path d="
M155.915 -431.992
L155.915 -363.913
L223.863 -397.952
z
" id="m89b7eca310" style="stroke:#000000;stroke-width:2;"/>
    </defs>
    <g clip-path="url(#p81dc710297)">
     <use style="fill:#ccff00;stroke:#000000;stroke-width:2;" x="0.0" xlink:href="#m89b7eca310" y="708.08"/>
    </g>
   </g>
   <g id="PatchCollection_12">
    <defs>
     <path d="
M232.356 -236.264
L300.304 -236.264
L300.304 -304.343
L232.356 -304.343
z
" id="me754e7ae18" style="stroke:#000000;stroke-width:2;"/>
    </defs>
    <g clip-path="url(#p81dc710297)">
     <use style="fill:#0029ff;stroke:#000000;stroke-width:2;" x="0.0" xlink:href="#me754e7ae18" y="708.08"/>
    </g>
   </g>
   <g id="PatchCollection_13">
    <defs>
     <path d="
M215.369 -151.164
L300.304 -151.164
L283.317 -168.184
L283.317 -219.244
L300.304 -236.264
L215.369 -236.264
L232.356 -219.244
L232.356 -168.184
z
" id="m583ffba2c9" style="stroke:#000000;stroke-width:2;"/>
    </defs>
    <g clip-path="url(#p81dc710297)">
     <use style="fill:#8f00ff;stroke:#000000;stroke-width:2;" x="0.0" xlink:href="#m583ffba2c9" y="708.08"/>
    </g>
   </g>
   <g id="PatchCollection_14">
    <defs>
     <path d="
M198.382 -66.0647
L215.369 -66.0647
L232.356 -83.0846
L232.356 -100.104
L206.876 -117.124
L181.395 -100.104
L181.395 -83.0846
z
" id="mcb6ca2e194" style="stroke:#000000;stroke-width:2;"/>
    </defs>
    <g clip-path="url(#p81dc710297)">
     <use style="fill:#14ff00;stroke:#000000;stroke-width:2;" x="0.0" xlink:href="#mcb6ca2e194" y="708.08"/>
    </g>
   </g>
   <g id="PatchCollection_15">
    <defs>
     <path d="
M177.149 -323.49
L228.109 -323.49
L211.122 -340.51
L211.122 -357.53
L228.109 -374.55
L177.149 -374.55
L194.136 -357.53
L194.136 -340.51
z
" id="m9c52f2c84f" style="stroke:#000000;stroke-width:2;"/>
    </defs>
    <g clip-path="url(#p81dc710297)">
     <use style="fill:#00ffe0;stroke:#000000;stroke-width:2;" x="0.0" xlink:href="#m9c52f2c84f" y="708.08"/>
    </g>
   </g>
   <g id="PatchCollection_16">
    <defs>
     <path d="
M147.422 -66.0647
L232.356 -151.164
L147.422 -151.164
z
" id="ma3ef3c7008" style="stroke:#000000;stroke-width:2;"/>
    </defs>
    <g clip-path="url(#p81dc710297)">
     <use style="fill:#ff7a00;stroke:#000000;stroke-width:2;" x="0.0" xlink:href="#ma3ef3c7008" y="708.08"/>
    </g>
   </g>
   <g id="PatchCollection_17">
    <defs>
     <path d="
M204.328 -551.496
L306.249 -551.496
L306.249 -653.615
L204.328 -653.615
z
" id="m9bdac32812" style="stroke:#000000;stroke-width:2;"/>
    </defs>
    <g clip-path="url(#p81dc710297)">
     <use style="fill:#0066ff;stroke:#000000;stroke-width:2;" x="0.0" xlink:href="#m9bdac32812" y="708.08"/>
    </g>
   </g>
   <g id="PatchCollection_18">
    <defs>
     <path d="
M187.765 -363.913
L85.844 -363.913
L136.805 -261.793
z
" id="m02907a2791" style="stroke:#000000;stroke-width:2;"/>
    </defs>
    <g clip-path="url(#p81dc710297)">
     <use style="fill:#ff007a;stroke:#000000;stroke-width:2;" x="0.0" xlink:href="#m02907a2791" y="708.08"/>
    </g>
   </g>
   <g id="PatchCollection_19">
    <defs>
     <path d="
M262.083 -340.51
L262.083 -391.57
L211.122 -391.57
L211.122 -374.55
L245.096 -374.55
L245.096 -357.53
L211.122 -357.53
L211.122 -340.51
z
" id="md84ffe5666" style="stroke:#000000;stroke-width:2;"/>
    </defs>
    <g clip-path="url(#p81dc710297)">
     <use style="fill:#cc00ff;stroke:#000000;stroke-width:2;" x="0.0" xlink:href="#md84ffe5666" y="708.08"/>
    </g>
   </g>
   <g id="PatchCollection_20">
    <defs>
     <path d="
M217.917 -545.6
L183.943 -545.6
L166.956 -528.58
L166.956 -494.54
L200.93 -477.52
L234.904 -494.54
L234.904 -528.58
z
" id="mbbefbf4dc3" style="stroke:#000000;stroke-width:2;"/>
    </defs>
    <g clip-path="url(#p81dc710297)">
     <use style="fill:#00ff29;stroke:#000000;stroke-width:2;" x="0.0" xlink:href="#mbbefbf4dc3" y="708.08"/>
    </g>
   </g>
   <g id="PatchCollection_21">
    <defs>
     <path d="
M223.802 -483.416
L291.75 -483.416
L274.763 -500.436
L274.763 -534.476
L291.75 -551.496
L223.802 -551.496
L240.789 -534.476
L240.789 -500.436
z
" id="m902653422a" style="stroke:#000000;stroke-width:2;"/>
    </defs>
    <g clip-path="url(#p81dc710297)">
     <use style="fill:#5200ff;stroke:#000000;stroke-width:2;" x="0.0" xlink:href="#m902653422a" y="708.08"/>
    </g>
   </g>
   <g id="PatchCollection_22">
    <defs>
     <path d="
M204.328 -560.918
L136.38 -611.977
L68.4324 -560.918
L136.38 -509.858
z
" id="m6d1212e618" style="stroke:#000000;stroke-width:2;"/>
    </defs>
    <g clip-path="url(#p81dc710297)">
     <use style="fill:#ffb800;stroke:#000000;stroke-width:2;" x="0.0" xlink:href="#m6d1212e618" y="708.08"/>
    </g>
   </g>
   <g id="PatchCollection_23">
    <defs>
     <path d="
M189.889 -227.754
L189.889 -261.793
L121.941 -261.793
L121.941 -193.714
L155.915 -193.714
L155.915 -227.754
z
" id="mf440e33ec6" style="stroke:#000000;stroke-width:2;"/>
    </defs>
    <g clip-path="url(#p81dc710297)">
     <use style="fill:#00a3ff;stroke:#000000;stroke-width:2;" x="0.0" xlink:href="#mf440e33ec6" y="708.08"/>
    </g>
   </g>
   <g id="PatchCollection_24">
    <defs>
     <path d="
M68.857 -261.793
L136.805 -261.793
L102.831 -329.873
z
" id="m0c66062636" style="stroke:#000000;stroke-width:2;"/>
    </defs>
    <g clip-path="url(#p81dc710297)">
     <use style="fill:#ff003d;stroke:#000000;stroke-width:2;" x="0.0" xlink:href="#m0c66062636" y="708.08"/>
    </g>
   </g>
   <g id="PatchCollection_25">
    <defs>
     <path d="
M280.647 -415.337
L280.647 -483.416
L212.7 -483.416
L212.7 -466.397
L263.661 -466.397
L263.661 -432.357
L212.7 -432.357
L212.7 -415.337
z
" id="mb732022ce0" style="stroke:#000000;stroke-width:2;"/>
    </defs>
    <g clip-path="url(#p81dc710297)">
     <use style="fill:#ff00f5;stroke:#000000;stroke-width:2;" x="0.0" xlink:href="#mb732022ce0" y="708.08"/>
    </g>
   </g>
   <g id="PatchCollection_26">
    <defs>
     <path d="
M232.356 -66.0647
L317.291 -66.0647
L317.291 -151.164
L232.356 -151.164
z
" id="m72723292c6" style="stroke:#000000;stroke-width:2;"/>
    </defs>
    <g clip-path="url(#p81dc710297)">
     <use style="fill:#1400ff;stroke:#000000;stroke-width:2;" x="0.0" xlink:href="#m72723292c6" y="708.08"/>
    </g>
   </g>
   <g id="patch_3">
    <path d="
M17.8516 5
L705.426 5" style="fill:none;stroke:#000000;stroke-linecap:square;stroke-linejoin:miter;"/>
   </g>
   <g id="patch_4">
    <path d="
M705.426 691.48
L705.426 5" style="fill:none;stroke:#000000;stroke-linecap:square;stroke-linejoin:miter;"/>
   </g>
   <g id="patch_5">
    <path d="
M17.8516 691.48
L705.426 691.48" style="fill:none;stroke:#000000;stroke-linecap:square;stroke-linejoin:miter;"/>
   </g>
   <g id="patch_6">
    <path d="
M17.8516 691.48
L17.8516 5" style="fill:none;stroke:#000000;stroke-linecap:square;stroke-linejoin:miter;"/>
   </g>
   <g id="matplotlib.axis_1">
    <g id="xtick_1">
     <g id="line2d_1">
      <defs>
       <path d="
M0 0
L0 -4" id="m93b0483c22" style="stroke:#000000;stroke-width:0.5;"/>
      </defs>
      <g>
       <use style="stroke:#000000;stroke-width:0.5;" x="68.4323664725" xlink:href="#m93b0483c22" y="691.48"/>
      </g>
     </g>
     <g id="line2d_2">
      <defs>
       <path d="
M0 0
L0 4" id="m741efc42ff" style="stroke:#000000;stroke-width:0.5;"/>
      </defs>
      <g>
       <use style="stroke:#000000;stroke-width:0.5;" x="68.4323664725" xlink:href="#m741efc42ff" y="5.0"/>
      </g>
     </g>
     <g id="text_1">
      <!-- 0 -->
      <defs>
       <path d="
M31.7812 66.4062
Q24.1719 66.4062 20.3281 58.9062
Q16.5 51.4219 16.5 36.375
Q16.5 21.3906 20.3281 13.8906
Q24.1719 6.39062 31.7812 6.39062
Q39.4531 6.39062 43.2812 13.8906
Q47.125 21.3906 47.125 36.375
Q47.125 51.4219 43.2812 58.9062
Q39.4531 66.4062 31.7812 66.4062
M31.7812 74.2188
Q44.0469 74.2188 50.5156 64.5156
Q56.9844 54.8281 56.9844 36.375
Q56.9844 17.9688 50.5156 8.26562
Q44.0469 -1.42188 31.7812 -1.42188
Q19.5312 -1.42188 13.0625 8.26562
Q6.59375 17.9688 6.59375 36.375
Q6.59375 54.8281 13.0625 64.5156
Q19.5312 74.2188 31.7812 74.2188" id="BitstreamVeraSans-Roman-30"/>
      </defs>
      <g transform="translate(65.4089289725 704.598125)scale(0.12 -0.12)">
       <use xlink:href="#BitstreamVeraSans-Roman-30"/>
      </g>
     </g>
    </g>
    <g id="xtick_2">
     <g id="line2d_3">
      <g>
       <use style="stroke:#000000;stroke-width:0.5;" x="153.366924343" xlink:href="#m93b0483c22" y="691.48"/>
      </g>
     </g>
     <g id="line2d_4">
      <g>
       <use style="stroke:#000000;stroke-width:0.5;" x="153.366924343" xlink:href="#m741efc42ff" y="5.0"/>
      </g>
     </g>
     <g id="text_2">
      <!-- 10 -->
      <defs>
       <path d="
M12.4062 8.29688
L28.5156 8.29688
L28.5156 63.9219
L10.9844 60.4062
L10.9844 69.3906
L28.4219 72.9062
L38.2812 72.9062
L38.2812 8.29688
L54.3906 8.29688
L54.3906 0
L12.4062 0
z
" id="BitstreamVeraSans-Roman-31"/>
      </defs>
      <g transform="translate(146.789424343 704.598125)scale(0.12 -0.12)">
       <use xlink:href="#BitstreamVeraSans-Roman-31"/>
       <use x="63.623046875" xlink:href="#BitstreamVeraSans-Roman-30"/>
      </g>
     </g>
    </g>
    <g id="xtick_3">
     <g id="line2d_5">
      <g>
       <use style="stroke:#000000;stroke-width:0.5;" x="238.301482214" xlink:href="#m93b0483c22" y="691.48"/>
      </g>
     </g>
     <g id="line2d_6">
      <g>
       <use style="stroke:#000000;stroke-width:0.5;" x="238.301482214" xlink:href="#m741efc42ff" y="5.0"/>
      </g>
     </g>
     <g id="text_3">
      <!-- 20 -->
      <defs>
       <path d="
M19.1875 8.29688
L53.6094 8.29688
L53.6094 0
L7.32812 0
L7.32812 8.29688
Q12.9375 14.1094 22.625 23.8906
Q32.3281 33.6875 34.8125 36.5312
Q39.5469 41.8438 41.4219 45.5312
Q43.3125 49.2188 43.3125 52.7812
Q43.3125 58.5938 39.2344 62.25
Q35.1562 65.9219 28.6094 65.9219
Q23.9688 65.9219 18.8125 64.3125
Q13.6719 62.7031 7.8125 59.4219
L7.8125 69.3906
Q13.7656 71.7812 18.9375 73
Q24.125 74.2188 28.4219 74.2188
Q39.75 74.2188 46.4844 68.5469
Q53.2188 62.8906 53.2188 53.4219
Q53.2188 48.9219 51.5312 44.8906
Q49.8594 40.875 45.4062 35.4062
Q44.1875 33.9844 37.6406 27.2188
Q31.1094 20.4531 19.1875 8.29688" id="BitstreamVeraSans-Roman-32"/>
      </defs>
      <g transform="translate(231.504607214 704.598125)scale(0.12 -0.12)">
       <use xlink:href="#BitstreamVeraSans-Roman-32"/>
       <use x="63.623046875" xlink:href="#BitstreamVeraSans-Roman-30"/>
      </g>
     </g>
    </g>
    <g id="xtick_4">
     <g id="line2d_7">
      <g>
       <use style="stroke:#000000;stroke-width:0.5;" x="323.236040084" xlink:href="#m93b0483c22" y="691.48"/>
      </g>
     </g>
     <g id="line2d_8">
      <g>
       <use style="stroke:#000000;stroke-width:0.5;" x="323.236040084" xlink:href="#m741efc42ff" y="5.0"/>
      </g>
     </g>
     <g id="text_4">
      <!-- 30 -->
      <defs>
       <path d="
M40.5781 39.3125
Q47.6562 37.7969 51.625 33
Q55.6094 28.2188 55.6094 21.1875
Q55.6094 10.4062 48.1875 4.48438
Q40.7656 -1.42188 27.0938 -1.42188
Q22.5156 -1.42188 17.6562 -0.515625
Q12.7969 0.390625 7.625 2.20312
L7.625 11.7188
Q11.7188 9.32812 16.5938 8.10938
Q21.4844 6.89062 26.8125 6.89062
Q36.0781 6.89062 40.9375 10.5469
Q45.7969 14.2031 45.7969 21.1875
Q45.7969 27.6406 41.2812 31.2656
Q36.7656 34.9062 28.7188 34.9062
L20.2188 34.9062
L20.2188 43.0156
L29.1094 43.0156
Q36.375 43.0156 40.2344 45.9219
Q44.0938 48.8281 44.0938 54.2969
Q44.0938 59.9062 40.1094 62.9062
Q36.1406 65.9219 28.7188 65.9219
Q24.6562 65.9219 20.0156 65.0312
Q15.375 64.1562 9.8125 62.3125
L9.8125 71.0938
Q15.4375 72.6562 20.3438 73.4375
Q25.25 74.2188 29.5938 74.2188
Q40.8281 74.2188 47.3594 69.1094
Q53.9062 64.0156 53.9062 55.3281
Q53.9062 49.2656 50.4375 45.0938
Q46.9688 40.9219 40.5781 39.3125" id="BitstreamVeraSans-Roman-33"/>
      </defs>
      <g transform="translate(316.456977584 704.598125)scale(0.12 -0.12)">
       <use xlink:href="#BitstreamVeraSans-Roman-33"/>
       <use x="63.623046875" xlink:href="#BitstreamVeraSans-Roman-30"/>
      </g>
     </g>
    </g>
    <g id="xtick_5">
     <g id="line2d_9">
      <g>
       <use style="stroke:#000000;stroke-width:0.5;" x="408.170597955" xlink:href="#m93b0483c22" y="691.48"/>
      </g>
     </g>
     <g id="line2d_10">
      <g>
       <use style="stroke:#000000;stroke-width:0.5;" x="408.170597955" xlink:href="#m741efc42ff" y="5.0"/>
      </g>
     </g>
     <g id="text_5">
      <!-- 40 -->
      <defs>
       <path d="
M37.7969 64.3125
L12.8906 25.3906
L37.7969 25.3906
z

M35.2031 72.9062
L47.6094 72.9062
L47.6094 25.3906
L58.0156 25.3906
L58.0156 17.1875
L47.6094 17.1875
L47.6094 0
L37.7969 0
L37.7969 17.1875
L4.89062 17.1875
L4.89062 26.7031
z
" id="BitstreamVeraSans-Roman-34"/>
      </defs>
      <g transform="translate(401.227472955 704.598125)scale(0.12 -0.12)">
       <use xlink:href="#BitstreamVeraSans-Roman-34"/>
       <use x="63.623046875" xlink:href="#BitstreamVeraSans-Roman-30"/>
      </g>
     </g>
    </g>
    <g id="xtick_6">
     <g id="line2d_11">
      <g>
       <use style="stroke:#000000;stroke-width:0.5;" x="493.105155825" xlink:href="#m93b0483c22" y="691.48"/>
      </g>
     </g>
     <g id="line2d_12">
      <g>
       <use style="stroke:#000000;stroke-width:0.5;" x="493.105155825" xlink:href="#m741efc42ff" y="5.0"/>
      </g>
     </g>
     <g id="text_6">
      <!-- 50 -->
      <defs>
       <path d="
M10.7969 72.9062
L49.5156 72.9062
L49.5156 64.5938
L19.8281 64.5938
L19.8281 46.7344
Q21.9688 47.4688 24.1094 47.8281
Q26.2656 48.1875 28.4219 48.1875
Q40.625 48.1875 47.75 41.5
Q54.8906 34.8125 54.8906 23.3906
Q54.8906 11.625 47.5625 5.09375
Q40.2344 -1.42188 26.9062 -1.42188
Q22.3125 -1.42188 17.5469 -0.640625
Q12.7969 0.140625 7.71875 1.70312
L7.71875 11.625
Q12.1094 9.23438 16.7969 8.0625
Q21.4844 6.89062 26.7031 6.89062
Q35.1562 6.89062 40.0781 11.3281
Q45.0156 15.7656 45.0156 23.3906
Q45.0156 31 40.0781 35.4375
Q35.1562 39.8906 26.7031 39.8906
Q22.75 39.8906 18.8125 39.0156
Q14.8906 38.1406 10.7969 36.2812
z
" id="BitstreamVeraSans-Roman-35"/>
      </defs>
      <g transform="translate(486.331718325 704.598125)scale(0.12 -0.12)">
       <use xlink:href="#BitstreamVeraSans-Roman-35"/>
       <use x="63.623046875" xlink:href="#BitstreamVeraSans-Roman-30"/>
      </g>
     </g>
    </g>
    <g id="xtick_7">
     <g id="line2d_13">
      <g>
       <use style="stroke:#000000;stroke-width:0.5;" x="578.039713696" xlink:href="#m93b0483c22" y="691.48"/>
      </g>
     </g>
     <g id="line2d_14">
      <g>
       <use style="stroke:#000000;stroke-width:0.5;" x="578.039713696" xlink:href="#m741efc42ff" y="5.0"/>
      </g>
     </g>
     <g id="text_7">
      <!-- 60 -->
      <defs>
       <path d="
M33.0156 40.375
Q26.375 40.375 22.4844 35.8281
Q18.6094 31.2969 18.6094 23.3906
Q18.6094 15.5312 22.4844 10.9531
Q26.375 6.39062 33.0156 6.39062
Q39.6562 6.39062 43.5312 10.9531
Q47.4062 15.5312 47.4062 23.3906
Q47.4062 31.2969 43.5312 35.8281
Q39.6562 40.375 33.0156 40.375
M52.5938 71.2969
L52.5938 62.3125
Q48.875 64.0625 45.0938 64.9844
Q41.3125 65.9219 37.5938 65.9219
Q27.8281 65.9219 22.6719 59.3281
Q17.5312 52.7344 16.7969 39.4062
Q19.6719 43.6562 24.0156 45.9219
Q28.375 48.1875 33.5938 48.1875
Q44.5781 48.1875 50.9531 41.5156
Q57.3281 34.8594 57.3281 23.3906
Q57.3281 12.1562 50.6875 5.35938
Q44.0469 -1.42188 33.0156 -1.42188
Q20.3594 -1.42188 13.6719 8.26562
Q6.98438 17.9688 6.98438 36.375
Q6.98438 53.6562 15.1875 63.9375
Q23.3906 74.2188 37.2031 74.2188
Q40.9219 74.2188 44.7031 73.4844
Q48.4844 72.75 52.5938 71.2969" id="BitstreamVeraSans-Roman-36"/>
      </defs>
      <g transform="translate(571.222213696 704.598125)scale(0.12 -0.12)">
       <use xlink:href="#BitstreamVeraSans-Roman-36"/>
       <use x="63.623046875" xlink:href="#BitstreamVeraSans-Roman-30"/>
      </g>
     </g>
    </g>
    <g id="xtick_8">
     <g id="line2d_15">
      <g>
       <use style="stroke:#000000;stroke-width:0.5;" x="662.974271567" xlink:href="#m93b0483c22" y="691.48"/>
      </g>
     </g>
     <g id="line2d_16">
      <g>
       <use style="stroke:#000000;stroke-width:0.5;" x="662.974271567" xlink:href="#m741efc42ff" y="5.0"/>
      </g>
     </g>
     <g id="text_8">
      <!-- 70 -->
      <defs>
       <path d="
M8.20312 72.9062
L55.0781 72.9062
L55.0781 68.7031
L28.6094 0
L18.3125 0
L43.2188 64.5938
L8.20312 64.5938
z
" id="BitstreamVeraSans-Roman-37"/>
      </defs>
      <g transform="translate(656.229896567 704.598125)scale(0.12 -0.12)">
       <use xlink:href="#BitstreamVeraSans-Roman-37"/>
       <use x="63.623046875" xlink:href="#BitstreamVeraSans-Roman-30"/>
      </g>
     </g>
    </g>
   </g>
   <g id="matplotlib.axis_2">
    <g id="ytick_1">
     <g id="line2d_17">
      <defs>
       <path d="
M0 0
L4 0" id="m728421d6d4" style="stroke:#000000;stroke-width:0.5;"/>
      </defs>
      <g>
       <use style="stroke:#000000;stroke-width:0.5;" x="17.8515625" xlink:href="#m728421d6d4" y="642.015287233"/>
      </g>
     </g>
     <g id="line2d_18">
      <defs>
       <path d="
M0 0
L-4 0" id="mcb0005524f" style="stroke:#000000;stroke-width:0.5;"/>
      </defs>
      <g>
       <use style="stroke:#000000;stroke-width:0.5;" x="705.425625" xlink:href="#mcb0005524f" y="642.015287233"/>
      </g>
     </g>
     <g id="text_9">
      <!-- 0 -->
      <g transform="translate(7.8046875 645.326537233)scale(0.12 -0.12)">
       <use xlink:href="#BitstreamVeraSans-Roman-30"/>
      </g>
     </g>
    </g>
    <g id="ytick_2">
     <g id="line2d_19">
      <g>
       <use style="stroke:#000000;stroke-width:0.5;" x="17.8515625" xlink:href="#m728421d6d4" y="556.915886834"/>
      </g>
     </g>
     <g id="line2d_20">
      <g>
       <use style="stroke:#000000;stroke-width:0.5;" x="705.425625" xlink:href="#mcb0005524f" y="556.915886834"/>
      </g>
     </g>
     <g id="text_10">
      <!-- 10 -->
      <g transform="translate(0.6965625 560.227136834)scale(0.12 -0.12)">
       <use xlink:href="#BitstreamVeraSans-Roman-31"/>
       <use x="63.623046875" xlink:href="#BitstreamVeraSans-Roman-30"/>
      </g>
     </g>
    </g>
    <g id="ytick_3">
     <g id="line2d_21">
      <g>
       <use style="stroke:#000000;stroke-width:0.5;" x="17.8515625" xlink:href="#m728421d6d4" y="471.816486436"/>
      </g>
     </g>
     <g id="line2d_22">
      <g>
       <use style="stroke:#000000;stroke-width:0.5;" x="705.425625" xlink:href="#mcb0005524f" y="471.816486436"/>
      </g>
     </g>
     <g id="text_11">
      <!-- 20 -->
      <g transform="translate(0.2578125 475.127736436)scale(0.12 -0.12)">
       <use xlink:href="#BitstreamVeraSans-Roman-32"/>
       <use x="63.623046875" xlink:href="#BitstreamVeraSans-Roman-30"/>
      </g>
     </g>
    </g>
    <g id="ytick_4">
     <g id="line2d_23">
      <g>
       <use style="stroke:#000000;stroke-width:0.5;" x="17.8515625" xlink:href="#m728421d6d4" y="386.717086037"/>
      </g>
     </g>
     <g id="line2d_24">
      <g>
       <use style="stroke:#000000;stroke-width:0.5;" x="705.425625" xlink:href="#mcb0005524f" y="386.717086037"/>
      </g>
     </g>
     <g id="text_12">
      <!-- 30 -->
      <g transform="translate(0.2934375 390.028336037)scale(0.12 -0.12)">
       <use xlink:href="#BitstreamVeraSans-Roman-33"/>
       <use x="63.623046875" xlink:href="#BitstreamVeraSans-Roman-30"/>
      </g>
     </g>
    </g>
    <g id="ytick_5">
     <g id="line2d_25">
      <g>
       <use style="stroke:#000000;stroke-width:0.5;" x="17.8515625" xlink:href="#m728421d6d4" y="301.617685639"/>
      </g>
     </g>
     <g id="line2d_26">
      <g>
       <use style="stroke:#000000;stroke-width:0.5;" x="705.425625" xlink:href="#mcb0005524f" y="301.617685639"/>
      </g>
     </g>
     <g id="text_13">
      <!-- 40 -->
      <g transform="translate(-0.0346875 304.928935639)scale(0.12 -0.12)">
       <use xlink:href="#BitstreamVeraSans-Roman-34"/>
       <use x="63.623046875" xlink:href="#BitstreamVeraSans-Roman-30"/>
      </g>
     </g>
    </g>
    <g id="ytick_6">
     <g id="line2d_27">
      <g>
       <use style="stroke:#000000;stroke-width:0.5;" x="17.8515625" xlink:href="#m728421d6d4" y="216.51828524"/>
      </g>
     </g>
     <g id="line2d_28">
      <g>
       <use style="stroke:#000000;stroke-width:0.5;" x="705.425625" xlink:href="#mcb0005524f" y="216.51828524"/>
      </g>
     </g>
     <g id="text_14">
      <!-- 50 -->
      <g transform="translate(0.3046875 219.82953524)scale(0.12 -0.12)">
       <use xlink:href="#BitstreamVeraSans-Roman-35"/>
       <use x="63.623046875" xlink:href="#BitstreamVeraSans-Roman-30"/>
      </g>
     </g>
    </g>
    <g id="ytick_7">
     <g id="line2d_29">
      <g>
       <use style="stroke:#000000;stroke-width:0.5;" x="17.8515625" xlink:href="#m728421d6d4" y="131.418884842"/>
      </g>
     </g>
     <g id="line2d_30">
      <g>
       <use style="stroke:#000000;stroke-width:0.5;" x="705.425625" xlink:href="#mcb0005524f" y="131.418884842"/>
      </g>
     </g>
     <g id="text_15">
      <!-- 60 -->
      <g transform="translate(0.2165625 134.730134842)scale(0.12 -0.12)">
       <use xlink:href="#BitstreamVeraSans-Roman-36"/>
       <use x="63.623046875" xlink:href="#BitstreamVeraSans-Roman-30"/>
      </g>
     </g>
    </g>
    <g id="ytick_8">
     <g id="line2d_31">
      <g>
       <use style="stroke:#000000;stroke-width:0.5;" x="17.8515625" xlink:href="#m728421d6d4" y="46.3194844433"/>
      </g>
     </g>
     <g id="line2d_32">
      <g>
       <use style="stroke:#000000;stroke-width:0.5;" x="705.425625" xlink:href="#mcb0005524f" y="46.3194844433"/>
      </g>
     </g>
     <g id="text_16">
      <!-- 70 -->
      <g transform="translate(0.3628125 49.6307344433)scale(0.12 -0.12)">
       <use xlink:href="#BitstreamVeraSans-Roman-37"/>
       <use x="63.623046875" xlink:href="#BitstreamVeraSans-Roman-30"/>
      </g>
     </g>
    </g>
   </g>
  </g>
  <g id="axes_2">
   <g id="patch_7">
    <path d="
M735.506 691.48
L1423.08 691.48
L1423.08 5
L735.506 5
z
" style="fill:#ffffff;"/>
   </g>
   <g id="patch_8">
    <path d="
M735.506 5" style="fill:none;stroke:#000000;stroke-linecap:square;stroke-linejoin:miter;"/>
   </g>
   <g id="patch_9">
    <path d="
M1423.08 691.48" style="fill:none;stroke:#000000;stroke-linecap:square;stroke-linejoin:miter;"/>
   </g>
   <g id="patch_10">
    <path d="
M735.506 691.48" style="fill:none;stroke:#000000;stroke-linecap:square;stroke-linejoin:miter;"/>
   </g>
   <g id="patch_11">
    <path d="
M735.506 691.48" style="fill:none;stroke:#000000;stroke-linecap:square;stroke-linejoin:miter;"/>
   </g>
   <g id="matplotlib.axis_3">
    <g id="xtick_9">
     <g id="line2d_33">
      <g>
       <use style="stroke:#000000;stroke-width:0.5;" x="774.78174742" xlink:href="#m93b0483c22" y="691.48"/>
      </g>
     </g>
     <g id="line2d_34">
      <g>
       <use style="stroke:#000000;stroke-width:0.5;" x="774.78174742" xlink:href="#m741efc42ff" y="5.0"/>
      </g>
     </g>
     <g id="text_17">
      <!-- 0 -->
      <g transform="translate(771.75830992 704.598125)scale(0.12 -0.12)">
       <use xlink:href="#BitstreamVeraSans-Roman-30"/>
      </g>
     </g>
    </g>
    <g id="xtick_10">
     <g id="line2d_35">
      <g>
       <use style="stroke:#000000;stroke-width:0.5;" x="965.101260751" xlink:href="#m93b0483c22" y="691.48"/>
      </g>
     </g>
     <g id="line2d_36">
      <g>
       <use style="stroke:#000000;stroke-width:0.5;" x="965.101260751" xlink:href="#m741efc42ff" y="5.0"/>
      </g>
     </g>
     <g id="text_18">
      <!-- 5 -->
      <g transform="translate(962.270948251 704.598125)scale(0.12 -0.12)">
       <use xlink:href="#BitstreamVeraSans-Roman-35"/>
      </g>
     </g>
    </g>
    <g id="xtick_11">
     <g id="line2d_37">
      <g>
       <use style="stroke:#000000;stroke-width:0.5;" x="1155.42077408" xlink:href="#m93b0483c22" y="691.48"/>
      </g>
     </g>
     <g id="line2d_38">
      <g>
       <use style="stroke:#000000;stroke-width:0.5;" x="1155.42077408" xlink:href="#m741efc42ff" y="5.0"/>
      </g>
     </g>
     <g id="text_19">
      <!-- 10 -->
      <g transform="translate(1148.84327408 704.598125)scale(0.12 -0.12)">
       <use xlink:href="#BitstreamVeraSans-Roman-31"/>
       <use x="63.623046875" xlink:href="#BitstreamVeraSans-Roman-30"/>
      </g>
     </g>
    </g>
    <g id="xtick_12">
     <g id="line2d_39">
      <g>
       <use style="stroke:#000000;stroke-width:0.5;" x="1345.74028741" xlink:href="#m93b0483c22" y="691.48"/>
      </g>
     </g>
     <g id="line2d_40">
      <g>
       <use style="stroke:#000000;stroke-width:0.5;" x="1345.74028741" xlink:href="#m741efc42ff" y="5.0"/>
      </g>
     </g>
     <g id="text_20">
      <!-- 15 -->
      <g transform="translate(1339.28841241 704.598125)scale(0.12 -0.12)">
       <use xlink:href="#BitstreamVeraSans-Roman-31"/>
       <use x="63.623046875" xlink:href="#BitstreamVeraSans-Roman-35"/>
      </g>
     </g>
    </g>
   </g>
   <g id="matplotlib.axis_4">
    <g id="ytick_9">
     <g id="line2d_41">
      <g>
       <use style="stroke:#000000;stroke-width:0.5;" x="735.5059375" xlink:href="#m728421d6d4" y="653.342222222"/>
      </g>
     </g>
     <g id="line2d_42">
      <g>
       <use style="stroke:#000000;stroke-width:0.5;" x="1423.08" xlink:href="#mcb0005524f" y="653.342222222"/>
      </g>
     </g>
     <g id="text_21">
      <!-- 0 -->
      <g transform="translate(725.4590625 656.653472222)scale(0.12 -0.12)">
       <use xlink:href="#BitstreamVeraSans-Roman-30"/>
      </g>
     </g>
    </g>
    <g id="ytick_10">
     <g id="line2d_43">
      <g>
       <use style="stroke:#000000;stroke-width:0.5;" x="735.5059375" xlink:href="#m728421d6d4" y="462.653333333"/>
      </g>
     </g>
     <g id="line2d_44">
      <g>
       <use style="stroke:#000000;stroke-width:0.5;" x="1423.08" xlink:href="#mcb0005524f" y="462.653333333"/>
      </g>
     </g>
     <g id="text_22">
      <!-- 5 -->
      <g transform="translate(725.8453125 465.964583333)scale(0.12 -0.12)">
       <use xlink:href="#BitstreamVeraSans-Roman-35"/>
      </g>
     </g>
    </g>
    <g id="ytick_11">
     <g id="line2d_45">
      <g>
       <use style="stroke:#000000;stroke-width:0.5;" x="735.5059375" xlink:href="#m728421d6d4" y="271.964444444"/>
      </g>
     </g>
     <g id="line2d_46">
      <g>
       <use style="stroke:#000000;stroke-width:0.5;" x="1423.08" xlink:href="#mcb0005524f" y="271.964444444"/>
      </g>
     </g>
     <g id="text_23">
      <!-- 10 -->
      <g transform="translate(718.3509375 275.275694444)scale(0.12 -0.12)">
       <use xlink:href="#BitstreamVeraSans-Roman-31"/>
       <use x="63.623046875" xlink:href="#BitstreamVeraSans-Roman-30"/>
      </g>
     </g>
    </g>
    <g id="ytick_12">
     <g id="line2d_47">
      <g>
       <use style="stroke:#000000;stroke-width:0.5;" x="735.5059375" xlink:href="#m728421d6d4" y="81.2755555556"/>
      </g>
     </g>
     <g id="line2d_48">
      <g>
       <use style="stroke:#000000;stroke-width:0.5;" x="1423.08" xlink:href="#mcb0005524f" y="81.2755555556"/>
      </g>
     </g>
     <g id="text_24">
      <!-- 15 -->
      <g transform="translate(718.6021875 84.5868055556)scale(0.12 -0.12)">
       <use xlink:href="#BitstreamVeraSans-Roman-31"/>
       <use x="63.623046875" xlink:href="#BitstreamVeraSans-Roman-35"/>
      </g>
     </g>
    </g>
   </g>
  </g>
 </g>
 <defs>
  <clipPath id="p81dc710297">
   <rect height="686.48" width="687.5740625" x="17.8515625" y="5.0"/>
  </clipPath>
 </defs>
</svg>
